<svg version="1.0" viewBox="0 0 500 285" xmlns="http://www.w3.org/2000/svg">
	<path title="Bolama" d="m216.3 160.1-3.153 0.2704-2.951 0.9329 0.1028 0.4078c-0.31 0.449-0.5744 0.9617-0.7609 1.475 0.3547 0.401 0.6585 1.047 0.7609 1.571-0.2128 0.4359-0.9651 0.8221-1.427 0.8558-0.111 0.532-0.1236 1.128-0.048 1.665-0.4056 0.6882-1.43 1.012-2.141 1.284-0.5308 1.067 0.2288 2.55-0.7609 3.426-0.6504 0.5755-1.687 0.4114-2.332 1.094-1.857 3.316 1.105 4.19 1.475 5.185 0.5131 1.381-0.3111 5.232 2.617 4.947l0.5709-0.5709c-0.1562-0.9656-0.9777-1.545-0.9039-2.569l0.4279-0.476c0.4096 0.2894 0.8192 0.7923 1.047 1.237l0.9519-0.048c0.4416-0.8746-0.214-1.784-0.143-2.71l0.5229-0.5709c0.0343-0.6264-0.0549-1.41-0.2849-1.999 0.6882-0.3724 1.243-1.085 1.617-1.76l0.8089-0.143c0.7551 0.8443 0.1574 3.649 0.3799 4.9l0.857 0.2849c0.544-0.2414 1.37-0.2998 1.95-0.1899l0.286-0.8089c-0.1956-0.6001-0.3346-1.232-0.429-1.856 1.149-0.1115 1.78 1.123 3.236 0.762 0.2271-0.4542 0.1871-1.317-0.048-1.761l-0.8558-0.333c-1.023-1.049-0.4594-2.387-1.047-3.519-0.3953-0.3364-1.018-0.6087-1.523-0.7139l-0.381-0.762c0.155-0.6985 0.6167-3.075 0.9039-3.519l0.286 0.9039c0.5846 1.484 1.387 1.366 2.236 2.331 2.159 2.454 0.4774 4.332 5.137 5.042l-0.381-0.381-0.143-0.8089c0.4691-0.302 0.9308-0.619 1.38-0.9508-0.4073-0.8352-1.445-0.7672-1.951-1.475-0.2866-0.401-0.4617-1.109-0.7139-1.571l0.191-0.6659 0.8089-0.333-0.048-0.9039c-0.3941-0.3627-0.7649-0.766-1.094-1.189l0.1899-0.9039c0.631-0.6355 1.568-0.607 2.236-1.189-0.3255-0.3735-0.8255-0.7574-1.284-0.9519l0.2849-0.8089 0.7854-0.3084-0.3095-0.6983-0.6748-0.3609-3.964-0.7653zm-14.56 9.699c-0.8506 0.2254-1.246 0.9754-1.951 1.427-1.873-0.7276-2.606 0.5132-3.757 1.618l-0.9988 0.143c-0.4599-0.2546-0.9056-0.5875-1.284-0.9519l-0.762 0.143c-0.3793 0.3324-0.6642 1.126-0.6659 1.618-0.6292 0.2814-1.785 1.62-2.284 2.188-0.8586-0.0297-1.854 0.4045-2.331 1.142l0.0481 1.095-0.476 0.6659c-0.5251 0.0595-1.358-0.0898-1.808-0.381-0.4479 0.1688-0.9748 0.4354-1.19 0.6659-0.528 0.2929-1.258 0.4725-1.855 0.5229-0.9176 1.417-1.306 2.847-2.665 3.996-0.9164 0.7757-3.185 1.416-3.614 1.951 0.0921 0.8775 0.8569 1.502 0.619 2.426 0.7448 0.2672 1.838-0.1224 2.378-0.6659l1.047 0.095c0.6424 0.4937 1.024 1.212 1.665 1.713l0.9039 0.1899c0.7082-0.4044 1.16-1.086 1.808-1.57l0.6659 0.5709c0.2157 0.6006 0.3341 1.268 0.381 1.903l0.9519 0.143c0.8861-0.6172 1.794-1.224 2.664-1.855l0.2849-0.8089 0.9988-0.1911 0.3341-0.7609c-1.541-2.616-1.986-1.022-3.71-1.856l-0.143-0.8089 0.381-0.6659c1.623-0.4942 3.037 0.8083 4.614 0.476 1.201-1.115 0.6654-1.481 2.664-1.951l0.143-0.6178-0.5709-0.524-0.1419-0.8089c0.3867-0.3524 0.9737-0.6648 1.475-0.8089l0.7128 0.381 0.143 0.9988c0.3781 0.365 0.8249 0.6974 1.285 0.9519l0.9508-0.0469 0.619-0.476 0.8089 0.095c0.1487 0.4691 0.5486 1.045 0.9508 1.332l0.8089-0.4279 0.191-0.9039c0.4571-0.0881 0.913-0.2797 1.332-0.476l-0.381-0.762-0.7128-0.4279v-1.57c-0.7305-0.4508-1.586-0.6339-2.284-1.142 0.1287-0.5795 0.3032-1.162 0.524-1.713l-0.286-0.8558c0.4039-0.8289 1.521-0.6488 2.046-1.428 0.1361-0.8649 0.4406-1.866 0.0916-2.71zm-76.54 3.519-0.762 0.3329c-0.429 0.9719-0.7031 2.243-1.332 3.091-1.959 2.645-4.867 1.874-5.898 3.091-0.25 0.6544-0.1253 1.284-0.2849 1.904-0.2837 1.105-1.808 1.32-2.569 1.998l-0.0481 0.7609c1.388 1.733-1.027 3.207-0.5709 5.042l-0.5229 0.6178c-0.7448 0.4674-1.836 0.0349-2.71 0.3329-1.045 1.064-0.6185 2.855-1.665 3.901-1.309 1.309-5.661 2.224-5.946 4.281l0.3329 0.7608c1.013 0.234 2.054-0.3203 2.997 0.095 0.7025 0.3775 0.9536 1.481 1.19 2.188 0.6887 0.5743 1.769 0.5755 2.616 0.762l0.619 0.5709 0.4748 1.713c0.7248-0.1476 0.8673-0.5504 1.38-0.9039 0.7545-0.5211 1.731-0.4428 2.522-0.9039 0.3432-0.3976 0.6487-1.01 0.7609-1.523l0.6659-0.4748 0.8089 0.3318 0.333 0.762 0.8569 0.2849 0.7609-0.3799c0.1871-0.5131 0.4508-1.025 0.7609-1.475l0.5709 0.524 0.1911 0.9977 0.5709 0.524 1.046 0.095c0.2242 0.4445 0.6842 0.9159 1.094 1.19 3.953 0.5675 3.674-2.484 6.042-3.995 1.034-0.3152 1.975 0.2414 2.996-0.143l0.429-0.6659c0.2071-1.404-0.8215-1.865-1.523-2.807-0.0578-0.2368-0.8169-8.179-0.8089-8.277 0.5766-0.0887 1.152-0.2248 1.713-0.381 0.2912-0.4696 0.3501-1.38 0.238-1.903l0.524-0.572-0.5709-0.5709-0.8089 0.143-0.5709-0.5229 0.1419-0.9039 0.7139-0.476 0.286-0.8089-0.619-0.524c-0.1859-0.9296 0.4708-1.674 0.4279-2.616-0.7191-0.2179-1.642-0.5876-1.95-1.332l-0.6659 1.617c-1.688 0.8483-2.344-1.044-3.283-1.902-0.1213-1.145 0.2363-2.261-0.3363-3.331zm-53.61 4.613c-0.6487 0.8203-1.101 1.86-1.951 2.521-0.4176 0.3249-0.9834 0.54-1.427 0.8569-1.93 1.379-3.971 3.588-6.469 3.9-1.993 0.2488-2.71-1.489-3.807-1.523-0.8964-0.028-1.525 0.7111-2.473 0.5709-0.3181-0.2769-1.203-0.6396-1.618-0.6178-1.319 0.0681-1.947 1.319-3.045 1.57-0.8815 0.2014-1.828-7e-3 -2.474 0.8558l-0.09497 0.7608 1.237 1.047-0.09496 0.762c-0.1991 0.1533-0.3444 0.4119-0.476 0.619l-0.04805 0.7597c0.3266 0.4634 0.536 1.202 0.5709 1.761-0.3461 0.7328-0.6333 1.563-0.6659 2.379 1.345 0.4811 2.517-0.075 3.807-0.381 0.7848-0.5812 0.7638-1.377 1.284-2.046 0.5812-0.7471 2.224-0.7798 3.14-1.617l0.7139 0.3799c-0.0818 0.9627 0.5241 1.678 1.237 2.236l0.9988 0.048c0.7122-0.4502 1.206-1.152 1.998-1.475 0.1013 0.0355 2.423 1.962 2.474 2.046 0.3026 0.5045 0.1808 1.01 0.7609 1.522l0.9519 0.1911c1.115-0.3541 1.612-1.384 2.14-2.332l0.8089-0.3799c1.193 0.5646 3.135 1.328 4.376 0.6659 0.1396-1.225-0.5486-3.157 0.619-4.138 0.3941-0.3312 0.9594-0.4434 1.379-0.8558 0.314-0.8209 0.0704-1.958 0.6659-2.617l0.9039-0.1899c0-1.952 0.2718-2.564 0.9988-4.329-0.07608-0.5463-0.4497-1.756-0.9508-2.094-0.6029 0.2317-1.263 0.3919-1.903 0.476-0.8369-0.3936-1.594-0.667-2.522-0.381zm16.28 10.16c-0.8022 0.0296-1.308 0.6081-2.062 0.8324-1.014 0.3015-1.995-0.0743-2.997 0.381-0.488 0.222-0.8438 0.7317-1.285 0.9519-1.122 0.5606-2.67 0.1465-3.852 0.8558-1.215 0.7294-1.217 2.947-2.807 3.9-1.701 1.02-6.178 2.888-6.851 4.567 0.04061 0.4548 0.4359 1.166 0.8569 1.38 1.124-0.1236 2.914-0.7116 3.948-0.286l0.6178 0.5709c1.027 0.0183 1.592-0.7906 2.522-1.047 0.2626 0.449 0.5698 0.8867 0.9039 1.285 1.295 0.6207 2.314-0.6504 3.519-0.7139 1.172-0.0612 2.274 0.9736 3.283-0.286 0.04062-0.3816-0.1625-1.037-0.4748-1.284l0.3799-0.6659c0.5675 0.0807 1.302 0.0738 1.856-0.0961 1.242-1.36 1.267-1.983 1.998-3.567l0.6659-0.429 0.476 0.619 0.6648-0.048c0.365-0.282 0.7425-0.889 0.8569-1.332-0.1991-0.5286-0.361-1.102-0.4279-1.665 0.2574-0.4897 0.5423-0.972 0.8558-1.428l0.04805-0.9977-0.476-0.6659c-0.6024-0.0681-1.207-0.7042-1.855-0.8089-0.1283-0.0208-0.2496-0.0277-0.3642-0.0235zm83.09 2.925c-1.808 0.2088-1.418 1.544-4.518 1.047l-0.762 0.3799c-0.3478 1.654-0.6832 3.454-2.426 4.234l-0.9039-0.191-0.5709-0.6178c-1.081 0.4216-1.755 1.346-2.95 1.57l-0.429 0.6659c0.3055 1.337 2.295 1.678 3.283 2.379 0.0401 0.4548 0.4359 1.165 0.857 1.379l0.9039 0.1911c0.794-0.5492 1.805-0.3101 2.569-0.8558 0.7728-0.552 0.7603-1.406 1.331-2.094 0.7545 0.3821 0.7832 1.473 1.333 2.094 1.36-0.1607 1.641-1.35 2.331-2.284 0.7534-0.3821 1.688-0.4863 2.332-1.047-0.1247-0.8295-0.6024-1.543-0.6659-2.379l0.5229-0.5709-0.381-0.7609c-0.5194 0.2054-1.431 0.2162-1.95 0l-0.286-0.6659c0.6201-0.5675 1.14-1.338 1.237-2.188zm-105.3 11.48-0.6413 0.1229-0.2592 0.3028 0.8424 2.746 0.5385 0.476 0.524-0.2704 0.3765-2.245-0.429-0.7765zm39.19 0.6491c-1.69 0.2437-2.583 2.683-4.423 0.9988h-0.9039c-0.8792 0.6115-1.612 1.457-2.284 2.284-1.018 0.5412-2.568-0.2586-3.805 0-1.207 1.004-2.215 1.292-2.236 3.14l0.381 0.7609c0.4908 0.2797 1.199 0.4571 1.76 0.476l0.476 0.7139-0.3329 0.7597 0.1911 0.9519 0.9039-0.238 0.5229-0.5709c0.1819-0.8638 0.3227-2.541 1.332-2.854 0.1402 0.5326 0.1962 1.115 0.191 1.665 1.798 1.734 3.743-0.976 5.041-1.903l-0.238-0.9039 0.286-0.7609 0.6178-0.476 0.8569 0.286c0.2706 0.7322 0.3885 1.867 0.9988 2.379l1.046 0.095c0.377-0.2826 0.7534-0.9273 0.857-1.38-0.25-0.9696-0.4525-2.994-0.0481-3.9-0.4353-0.4308-0.9044-0.9737-1.19-1.523zm11.81 6.066c-1.263 0.0167-2.581 0.6923-3.057 1.831l0.3799 0.762c1.087 1.015 4.162 0.5417 4.995-0.6659-0.0835-0.4759-0.3707-1.17-0.7139-1.523-0.4673-0.2828-1.03-0.412-1.604-0.4044zm24.77 1.736c-0.7763 0.163-2.387 0.9108-2.996 1.427-0.81 0.6853-1.389 1.698-2.188 2.379-1.245 1.06-4.442 4.213-3.948 5.994l0.5709 0.5229c2.897 0.6722 2.542-2.319 4.09-3.424 0.4565-0.3261 1.12-0.4405 1.57-0.762 1.035-0.7391 3.422-4.338 3.234-5.565zm12.18 0c-0.3821 0.0566-2.795 1.19-3.234 1.427-0.6401 0.3426-1.048 1.051-1.855 1.285-0.6161 0.1779-1.244 0.0338-1.713 0.6178-0.2683 0.8981-0.0898 1.87-0.524 2.712-0.7459 1.446-2.246 1.345-1.57 3.664 0.9404 0.7648 2.224 2.1 3.52 2.046 0.5577-0.1442 0.9496-0.5538 1.332-0.9519 2.143-2.232 0.0286-3.41 1-5.946 0.6258-0.6304 1.592-0.5675 2.188-1.19 0.5514-0.5749 0.786-1.411 1.38-1.998l-0.048-0.9988zm-42.9 4.288c-1.662-0.01-4.819 0.5554-5.764 1.23-0.6596 0.4719-0.889 1.527-0.9988 2.284l-0.7139 0.238c-0.3913-0.2746-0.794-0.758-0.9988-1.189l-0.8089 0.1419-0.476 0.7139c-0.9364 0.0595-2.112-0.853-2.805-1.427l-0.9988 0.143-0.286 0.8089c0.0921 0.5051 0.3993 1.153 0.762 1.522l-0.3329 0.524-0.9039-0.143-0.5709 0.5709c0.377 1.265 1.437 1.111 1.284 3.091l0.476 0.6178c1.373-0.044 2.605-0.5578 3.9-0.6178 0.6344-0.0297 1.244 0.1338 1.903 0.048 0.6086-0.5594 2.045-2.554 2.236-3.331l0.8089-0.381c0.699 0.7906 2.101 1.482 3.045 0.6659 1.101 0.3146 3.434 1.287 4.423 0.667l0.476-0.5709-0.333-0.8089-0.619-0.476-0.095-0.8089 0.7609-0.381 0.048-1.427c-0.8312-0.127-1.796-0.385-2.472-0.9039l-0.333-0.7609c-0.1657-0.0263-0.3736-0.0399-0.6111-0.0414zm-21.56 1.134-0.6648 0.476-0.3329 0.8089 0.2849 0.6659c1.015 0.0441 2.034 0.0795 3.045 0.191l0.3329-0.572c-0.3364-0.7442-1.887-1.531-2.665-1.57zm73.84 0.7609-0.3374 0.1531-0.9139 1.991 0.3095 0.4436 0.6804 0.0648 0.7877-0.3854 0.5318 0.105 0.1844-0.2268-0.2391-0.8547 0.143-0.4871-0.4614-0.553zm-33.24 3.567-1.085 0.7251 0.0458 0.4849 0.457 0.2168 1.13-0.3173 0.2179-0.4871-0.2726-0.5184zm30.79 1.655-0.9743 0.5363-0.7419 0.9072-0.0648 0.6346 0.9977 1.029 0.4458-0.5285 0.6849-2.099zm-79.81 0.1072c-0.4794-0.0406-1.367 0.198-1.665 0.619-0.2643 0.5017-0.4571 1.149-0.524 1.712-1.873 1.497-4.086 1.225-4.661 1.998-0.179 1.059-0.06121 2.173 0.04805 3.234l-0.476 0.7139c-2.02 0.1916-2.228 3.407-2.807 5.042l0.476 0.381c1.016 2e-3 1.951-0.4331 2.95-0.5709 1.748 0.401 1.734 2.006 2.853 2.807l1.047 0.0469c0.4685-0.2202 0.9777-0.6939 1.427-0.8558 2.29-0.8272 6.448 0.8575 9.372-0.286l0.3799-0.8089c-0.294-0.8123-0.9897-1.327-1.284-2.14l0.476-0.8089c1.296-0.6081 2.679-1.049 3.852-1.856l0.191-0.5218c0.4239-0.1688 0.9514-0.683 1.142-1.095l-0.286-0.9039c-0.6224-0.4588-1.479-0.4771-1.95-1.142-0.09553-0.6744-0.1339-1.364-0.143-2.045l-0.476-0.619c-0.7928-0.4033-4.22-0.4388-5.137-0.2849-0.5886-0.5457-1.261-1.052-1.665-1.76l-0.8569-0.286-0.8558 0.286zm89.95 0.2849-1.047 0.143c-0.4153 0.2654-0.869 0.6802-1.142 1.094l-0.619-0.3318-0.3799-0.762c-0.6704-0.0955-1.197 0.3373-1.808 0.5072-0.7568 0.2099-1.777 0.308-2.474 0.5866-1.091 0.437-2.672 2.543-3.14 3.615-0.4611 0.3266-0.9657 0.611-1.475 0.8558-0.4788-0.1544-1.401-0.1007-1.808 0.238-0.4353 0.8031-0.3873 1.99-0.1899 2.855l-0.4279 0.6659-0.9039 0.286c-0.2197 0.5858-0.6505 0.7883-0.9988 1.237-0.508 0.6533-0.5269 1.561-1.237 2.093 0.8123 0.2008 1.659 8e-3 2.426 0.4279l0.4279 0.6659c-0.2025 0.9307-0.107 1.89-0.381 2.807l-0.8078 0.143-0.7139-0.3799-0.8569 0.1899-0.476 0.7139c0.6985 2.359 1.027 1.839 1.142 4.662l0.429 0.6178 0.9508 0.191c1.513-0.4799 1.269-1.449 2.093-2.427l0.762-0.143c0.0812 0.6733 0.1264 1.368 0.095 2.046l0.8089 0.0481 0.286-0.762 0.6659-0.5229c0.3535 0.4102 0.6808 0.8621 0.9508 1.332l0.762 0.381c0.3558-0.3163 0.6785-0.8782 0.8089-1.332l-0.143-1.047-0.524-0.619c-0.4267-1.55 0.8392-3.004 0.762-4.519l-0.476-0.6178-1-0.191c0.2426-0.7837 0.8633-1.521 1.666-1.76 0.8277 0.1344 1.452 0.9428 1.665 1.713l0.619 0.333 0.7608-0.381 0.429-0.7139c-0.1121-0.5234-0.0526-1.432 0.238-1.902 0.449-0.1573 0.98-0.7523 1.141-1.19l-0.2849-0.8558-0.6178-0.524v-0.6659l0.6178-0.524c0.81-0.0172 2.296-0.1596 2.902 0.476 0.1447 1.738-0.4696 3.296 0.0469 4.994 0.7093 0.0532 1.46-0.2647 1.871-0.8402 1.741-2.439-0.5837-4.255-1.014-6.533-0.314-1.663 0.8124-2.189 1.094-3.283 0.258-1.003-0.3186-1.487-0.4279-2.379-0.2814-0.3009-0.6865-0.5246-1.047-0.7128zm-127.4 0.0469c-0.9599 0.2328-1.938 0.1888-2.903 0.3799l-0.5709 0.5709c0.3959 0.1012 0.8981 0.5778 1.047 0.9519-0.2488 0.9713-1.207 1.915-1.713 2.807l0.04805 0.6659 0.8089 0.048c0.7385-0.6372 2.082-1.213 2.521-2.046 1.615-1.019 3.648-0.1087 5.28 0.238 0.2717-0.2689 0.4988-0.7889 0.619-1.142l-0.286-0.6659c-2.754 0.23-3.181 0.2224-4.851-1.808zm97.62 0.5575c-0.1504 8e-3 -0.2958 0.0287-0.4346 0.0637-2.575 0.6435-3.117 3.526-4.186 5.66l-0.9519 0.2849c-0.9456 0.9799-0.8405 4.352-1.997 5.613-0.3249 0.3552-0.9428 0.6785-1.332 0.9988l0.3329 0.7608c0.3844 0.3524 1.266 0.5023 1.76 0.429-0.2054 0.4079-0.2294 1.133-0.143 1.57 1.359 0.3758 1.62 1.626 2.616 1.903 1.193 0.3312 1.604-0.2706 2.569-0.619 1.77-0.639 5.53 0.6852 5.233-2.617-0.9015-1.129-1.214-1.621-1.19-3.138l0.667-0.524c0.1167-1.01-0.3804-1.803-0.7139-2.712 0.1001-0.8432 0.4594-1.734 0.9508-2.426-0.1991-0.504-0.2214-1.402 0-1.904 0.4468 0.0784 1.237-5e-3 1.617-0.2849l0.143-0.9039c-0.3181-0.4388-0.5927-0.9319-0.8089-1.428l-0.7128-0.4279c-1.066 0.1587-2.365-0.3558-3.418-0.2994zm-87.72 1.616c-0.3216-2e-3 -0.628 0.0306-0.9027 0.1106l-0.3799 0.7139 0.1419 0.9988 0.476 0.1899 0.7139-0.3799c0.7259 0.1173 1.505 0.1207 2.236 0.0469l0.6648-0.5229-0.04691-0.667c-0.8323-0.1836-1.938-0.4859-2.903-0.4905zm50.23 13.91c-0.8815 0.0629-1.47 0.7952-1.855 1.522l-0.8089 0.381c-0.3318-0.4159-0.6488-0.8467-0.9508-1.285l-0.9039-0.1899c-2.963 1.769-0.7729 2.855-1.047 4.423l-0.476 0.667-0.7609 0.1899-0.7139-0.476-0.3329-0.7608-0.7609-0.4279c-0.8535 0.389-0.8415 1.396-1.618 1.855-1.178 0.0709-2.728 0.1093-3.472 1.189-0.5291 1.984 1.393 4.652-0.143 5.804-0.9227 0.6922-2.367 1.065-3.409 1.617-0.929 0.492-1.898 1.344-3.012 0.8089l0.09497-0.7608c0.6727-1.082 2.029-0.9943 2.998-1.618l0.04691-0.7608-0.7609-0.333c-1.448 0.1138-2.828 1.054-4.043 1.76-1.027 0.5966-2.051 0.7369-2.998 1.57-2.844 2.503-0.457 6.292 2.189 7.754 0.9587 2.353 2.011 1.869 3.662 3.093 1.512 1.12 3.245 3.008 5.28 1.522l0.8558 0.0961c-0.1264 0.4822-0.03146 1.354 0.286 1.76 0.6258 0.1607 1.407 0.1802 2.045 0.095l0.6659-0.4279 0.09609-0.8089c-0.2008-0.3341-0.7134-0.7202-1.095-0.8089 0.4656-0.3335 2.02-2.884 2.189-3.472l0.7609-0.143 0.238 0.8569c-0.234 0.4982-0.5303 0.9846-0.8569 1.427l0.04805 0.8569c0.6138 0.6069 0.9188 1.53 1.189 2.331 2.586-0.5348 2.529-2.215 5.661 0.095 1.904 0.3272 2.481-0.6505 3.9-1.475 0.5074-0.2952 1.013-0.3884 1.475-0.8089l0.191-0.6659c-0.6235-0.4845-1.324-1.078-1.57-1.855l0.2849-0.8089c0.8123-0.3684 1.688-0.5704 2.474-0.9988l0.4279-0.6659c0.1138-0.8523 0.1218-2.213-0.6178-2.807-0.0698-1.297-0.432-3.307-1.856-3.805l0.191-0.6659c0.5183 0.1493 1.431 0.0955 1.903-0.1899l0.095-1.047c-0.2906-1.15-1.634-1.543-2.616-1.903l-0.3329-0.7608 0.3799-0.6659c-0.3615-1.997-1.169-3.392 0.8089-4.804 0.4914-0.3512 0.9742-0.4245 1.332-0.9988l0.095-1-0.4279-0.7608c-0.5406-0.4708-2.105-0.5384-2.902-0.8558-0.3181-0.4388-0.5927-0.9319-0.8089-1.428zm16.3 0.6927c-0.551-0.0105-0.8939 0.2408-1.414 0.448-1.358 0.5434-2.682 0.2569-4.09 0.3799-0.4256 0.1865-0.9416 0.7528-1.095 1.19l-0.9039 0.2849-0.8078-0.3329c-0.4519 0.1035-1.067 0.6116-1.237 1.047l-0.9039 0.286c-0.2986 0.3947-0.7912 0.7517-1.047 1.142-0.5022 0.7671-0.6293 1.338-1.38 1.998l-0.095 0.9988c0.2986 0.7843 1.007 1.269 1.57 1.856l0.3329 1.712 0.6659 0.429c1.384-0.258 2.721-0.0383 4.09-0.191-1.924 1.009-2.692 5.346-1.618 7.135 0.4056 0.675 1.372 0.98 1.57 1.618l-0.1899 0.6659 0.238 0.9039 0.619 0.476c0.5875 0.1871 1.331 0.0761 1.855-0.238 0.7248-0.4348 0.5841-0.6642 0.9039-1.284 1.095-2.121 3.074-3.852 4.234-5.899 0.409-0.7208 0.9153-2.707 0.8558-3.519-0.1756-2.402-1.966-3.953-2.141-5.946 0.6401-1.762 2.524-3.399 0.238-5.137-0.0883-0.0131-0.1716-0.0197-0.2503-0.0212zm5.768 1.258-1 0.5709c-0.3455 0.6361-1.07 1.448-1.285 2.093-0.6956 2.086 0.8181 5.823 2.522 7.136l0.143 0.7609c-1.348 1.177-4.835 6.539-1.808 7.611l0.4279-0.7139c-0.0944-0.5125 0.0337-1.368 0.3329-1.807l0.6659-0.476c0.8592-0.1533 2.805 0.1802 3.474 0.7609l0.3799 0.7609c-0.1516 0.5291-0.4091 1.064-0.7128 1.522-5.457 0.1327-2.686 0.7987-4.947 2.427-1.215 0.3255-2.406-0.2717-3.71 0.238l-0.4279 0.7139c0.3278 0.2992 0.635 0.9794 0.6178 1.427l-0.2849 0.5709c1.543 0.6796 2.212-0.5829 3.376-0.5709 0.3564 0.3615 1.24 0.5011 1.713 0.4279 0.3409-0.3152 1.014-0.5881 1.475-0.6178l0.762 0.3329c0.2488 0.6538 0.9074 1.45 1.665 1.475l0.8089-0.381 0.1899-0.9039c0.8398 0.5228 2.817 0.3054 3.472-0.476 0.6447 0.1665 1.332 0.2586 1.998 0.2849 1.527-0.9473 1.615-3.599 0.9508-5.09-0.778-0.1573-1.22 0.6824-1.998 0.524-1.299-1.542-1.966-5.41-0.619-7.04v-0.9039l-0.5698-0.619c-0.0812-0.6184-0.0555-1.288 0.0469-1.903-0.5474-0.1773-1.09-0.385-1.617-0.6178-0.7568-1.46 0.2201-4.165-2.236-4.566-0.6876-0.8661-1.166-1.894-1.856-2.712-0.6195-0.1739-1.307-0.2552-1.95-0.238zm54.94 22.5-1.713 0.095c-0.1945 0.4325-0.5881 0.6722-0.8078 1.047-0.2694 0.4588-0.3266 1.099-0.619 1.57-0.4851 0.782-1.342 0.877-1.998 1.475-0.1316 0.7751 0.3868 1.777 1.046 2.188 0.516 0.2271 1.433 0.1945 1.951 0 0.5429-0.5806 0.9565-1.281 1.379-1.951 0.5308-0.2374 1.054-0.4948 1.571-0.7608l0.4279-0.6659c-0.0566-0.905-0.7134-1.649-0.6659-2.521zm-17.66 5.667-0.3676 0.6022 0.0514 0.8938 1.01 1.85 0.7575 0.1754 0.5821-1.426-0.2793-1.003-0.6581-1.035zm7.714 4.704c-0.5703 0.6556-0.6207 1.709-0.8558 2.521 0.2282 1.254 1.194 2.189 2.521 2.046l0.667-0.5229 0.2849-0.8089c-0.9713-1.058-1.946-1.176-1.95-2.996z"/>
	<path title="Cacheu" d="m211.4 21.97-2.201 1.576-3.652 2.067-2.685 0.7106-0.4089 0.5653-3.4 1.169-1.165 0.7262-1.136 0.2034-5.772 2.399-0.4112 0.4536-10.93 5.275-0.4112 0.4167-2.185 1.003-0.4849 0.5296-5.666 1.802-3.975 0.7318-2.163-3e-3 -9.362-1.346-1.324 5e-3 -1.6 5e-3 -0.8391-0.248-2.621-0.1084-2.324-0.5229-7.497-1.036-5.812-0.1475-6.067 0.4134-2.347 0.4112-1.445-0.1251-13.82-4.434-2.164-1e-3 -0.9921-0.2447-6.138 1.032-5.171 1.435-2.808 0.1229-0.5631 0.3821-2.005 0.0637-0.5743 0.019-3.091-0.8804-2.13-0.1866-2.2 0.1128-1.773 0.6636-3.98 2.457-5.529 2.783-1.01 0.838-2.182 1.046-0.3709 0.4547-3.608 2.003-5.232 2.369-1.876 1.153-1.382 1.181-1.431 0.5843-12.63 0.639-4.308 1.01-2.085 0.1508-0.3475-0.3296-5.935-0.7106-1.628 0.2156-0.6759 0.3866-3.777 0.8905-1.403 0.0637-1.708-0.0424-7.507-1.336-0.4536-0.0804-3.419-0.1218-1.171 0.2827-2.859 1.286-2.652 2.103-0.9776 1.61c2.992 1.153 4.048-3.122 7.091-1.957 0.8077 0.3089 7.345 5.187 8.562 6.088 0.5148 0.3816 1.239 1.304 1.57 1.856 0.7139 1.189 0.5607 1.904 2.141 2.331 2.898 0.7831 2.82-0.9891 4.566-0.8569 1.995 0.9994 5.255 3.112 5.994 5.328 0.1899 0.5698 0.1876 1.255 0.381 1.855 1.277 1.102 2.89 1.401 4.138 2.569 0.03318 1.713 1.275 3.435 1.665 5.089 0.8295 0.8277 1.768 0.3329 2.712 0.3329 1.618 0 2.411 1.251 3.662 1.999l0.9039-0.048c0.5846-0.5863 0.8627-1.39 1.522-1.903 1.55-0.4714 3.427 0.7196 4.9-0.3329 0.9679-0.691 1.184-2.193 1.712-2.521 0.7757 0.7734 2.072 1.524 3.14 0.8558 0.8672 0.2122 1.509 0.861 2.426 0.9039 1.25 0.0584 2.193-0.2868 3.267-0.8245 5.098-2.55-1.158-5.253 2.394-9.546 1.939-0.3953 1.947-2.429 2.855-3.662 1.263 3.103 1.297 3.687-1.57 5.66-0.9753 1.391 0.1689 4.736 1.903 5.185 0.5909-0.0852 1.165-0.3787 1.617-0.7609 0.8438-0.7139 1.144-1.811 1.808-2.665 0.4862-0.6252 11.36-9.058 12.18-9.465 0.496-0.2483 1.218-0.3987 1.761-0.5229 2.13 0.8226 2.531-0.2406 4.296-0.3173 1.694-0.0738 3.537 1.021 5.122-0.1106 2.446-1.748 3.715-6.714 5.899-7.564 0.8935-0.3472 1.92-0.3547 2.853-0.6659 1.418-0.4725 3.377-0.8312 4.804-0.238l-0.3799 0.524c-1.15 0.2975-2.463 0.5887-3.569 0.9988-0.5257 0.1951-1.063 0.6568-1.57 0.8078-0.9021 0.2683-1.86 0.0704-2.616 0.8569-1.157 1.205-2.028 6.312-4.757 7.516-1.621 0.715-3.624-0.1733-5.279 0.1899-1.966 0.925-2.009 2.366-3.426 3.377-1.12 0.8003-2.691 1.195-3.9 1.855-1.927 1.051-2.965 2.381-5.296 3.615-0.282 0.1493-0.6514 0.3541-0.8882 0.5709-0.2471 0.2265-0.4956 0.5784-0.6815 0.8569-0.7419 1.113-1.082 3.757 0.1587 4.661 0.07036 0.8409 0.175 2.178-0.333 2.902-0.429 0.3878-1.4 0.5623-1.951 0.476-0.3918-0.3369-0.6682-1.166-0.6659-1.665 0.2729-0.4456 0.4222-1.299 0.286-1.808l-0.5709-0.524-0.9519 0.238c-0.655 1.005-1.751 1.299-2.664 1.951-0.175 0.1253-0.3684 0.3679-0.524 0.5229-1.035 1.035-2.123 1.681-3.186 2.617-1.581 1.391-1.578 5.179-2.617 7.326-0.6504 1.344-1.964 1.792-2.617 2.996v0.476c2.727 3.059 3.206 5.961 2.76 9.941 0.758 0.4187 1.278 1.283 1.332 2.141-0.4119 0.5457-0.5332 1.475-0.3329 2.109 1.575 4.984 7.109 0.3616 9.751 4.503 1.447 1.634 0.9674 4.202 2.189 5.851 2.217 2.992 4.006 2.424 6.469 3.615 1.176 0.5686 2.155 1.703 3.424 2.188 2.151 0.8226 6.916-0.5354 7.992 0.0961 2.111 1.237 2.283 4.715 6.184 3.615 3.492-0.985 1.246-4.285 9.705-5.661 3.356-0.5463 10.94 0.9605 12.27 0.6659 1.655-0.3684 6.614-5.144 6.66-6.945 0.0109-0.4227-1.299-3.836-1.57-4.233-0.2408-0.3547-0.7294-0.6264-0.9988-1.047 1.411 0.528 2.263 2.059 3.091 2.331l0.8089-0.1899 0.333-0.762-0.4279-0.7608 0.095-0.8089c0.3632 0.1093 1.501 0.2809 1.856 0.1899 1.035-0.266 1.82-1.394 2.902-1.712 1.343-0.3947 4.906-0.8479 5.612-2.046 0.099-0.8941-4e-3 -1.999 0.429-2.807l0.6659-0.0481c0.2248 0.5743 0.7008 1.688 1.142 2.094 0.957 0.8804 4.067 1.407 5.327 1.284 0.9879-0.0961 1.562-0.694 2.426-0.9508 2.007-0.5966 4.728-0.5016 6.279 1.047-0.1018 0.6144-0.1276 1.284-0.0469 1.903 0.846 1.364 2.252 0.5429 3.471 0.5709 0.6596 0.0149 1.323 0.1854 1.999 0.1888 1.68-0.7322 2.098-4.037 4.166-2.959l6.788-3.312c-0.0855-0.1419-0.2632-0.3302-0.3095-0.4726-1.471-4.532 0.3009-3.687 1.667-6.396-0.0131-1.616-0.9297-2.774-1.306-4.279-0.5091-2.036 1.764-4.888 2.973-6.261 0.3604-1.463-0.5284-5.874-2.343-6.351-2.148-0.5646-4.926-0.9337-6.621-2.523-0.3381-1.499-3.54-3.25-4.685-4.37-0.9736-0.9524-1.896-1.986-2.838-2.972-0.3901-0.409-0.5869-1.369-0.9296-1.949 0.4296-0.4285 2.365-1.194 2.831-1.346 0.4336-0.1419 0.9067-1.311 0.6178-1.705-0.9181-1.252-0.6773-0.8578-2.599-1.441 0.5326-0.647 1.306-1.088 1.946-1.618 1.274-1.053 1.367-2.177 2.343-3.218l0.1039 0.0626c0.1156 0.5389-0.064 1.625-0.2883 2.214-0.258 0.6784 1.077 1.393 1.549 1.173 0.8449-0.3947 1.914-0.2582 2.829-0.3944 1.317-0.1962 1.313-0.3195 1.76-1.467 0.2683-0.6899-0.7438-2.115-1.138-2.579l0.0581-0.391c1.575-1.253 4.138-0.2358 5.92-0.1128l0.1475-7e-3 1.036-0.181 0.1598-0.0503c0.2957-0.1424 0.5648-0.3574 0.7787-0.5307l0.3162-0.2558c1.132-0.885 2.8-0.2609 3.601-1.88l0.0603-0.2134c0.0612-0.6498 0.2084-1.83 0.5184-2.397 0.4308-0.4468 1.516-0.6955 2.134-0.886 3.722-1.144 1.052-4.913 6.599-3.131l0.2302 0.0268c2.551-0.1796 2.684-3.999 5.348-4.915 0.7797-0.032 2.369 0.6095 3.093 0.9418 0.4897 0.2254 3.171-0.6295 4.169-0.5843l0.2603 0.1553c0.0463 0.969 0.283 1.981 0.5072 2.826 0.2648 0.9976 1.865 2.109 2.951 1.668 3.266-1.324 5.198-4.583 8.806-5.285l-0.1341-0.5977c-0.7642-2.322 4.511-10.45-1.699-21.73zm-72.15 88.23c-1.199 0.0556-2.1 0.8232-3.324 1.327-2.082 0.8575-5.123 1.586-5.153 4.409 2.243 0.7248 3.34-1.949 4.899-2.855 1.133-0.6578 4.65-1.33 4.9-2.664-0.4894-0.176-0.923-0.2364-1.323-0.2179zm-71.52 4.319-0.4838 0.5307-0.1061 4.703-1.571 7.526-1.637 3.832-1.526 1.556-1.317 0.4324-0.1788 0.6 0.7631 0.2849 1.78 8e-3 2.098 0.8592 1.799-1.112 2.083 1e-3 1.79 0.5665 2.646 1.858 0.4625-0.0491 0.3687-0.0391 0.8994-0.5374 1.061 0.019 0.9921 0.4692 0.9106 0.0592 2.895-1.242 0.5921-0.7564 0.2592-1.075 0.1296-0.5363 0.5955-0.6067 1.09-0.4659 1.173-0.0938 0.9396-0.3519 0.372-0.4156 0.1039-0.524-0.2737-0.5553-2.273 0.038-1.898-0.3039-0.7262-0.324-2.699-2.79-0.6134-0.3631-0.4927-0.067-1.356 0.3955-1.049 0.6525-0.6458-0.0268-0.08156-0.3709 0.4771-0.8659 1.157-0.9899 0.2547-0.5631-0.238-0.5933-1.742-1.127-0.9016-0.5821-1.16-1.361-1.306-2.032-1.421-2.212-0.8905-1.066zm52.49 11.07c-1.51-0.0841-2.812 0.8901-4.281 1.095-1.375 0.1916-2.943 0.099-4.328 0-0.6155-0.044-1.202-0.1556-1.808 0.0469l0.0481 0.8569 0.4748 0.7128 0.9519 0.143c-2.666 1.217-2.922 0.4737-4.519 1.095-2.49 0.9685-3.439 2.664-6.612 2.664-3.315 0-3.114-1.947-7.626-1.332-0.6876 0.0938-1.622 0.222-2.125 0.762 0.06807 0.5903 0.3472 1.387 0.3329 1.95-0.02345 0.9061-0.8089 1.577-0.8558 2.521 0.2185 0.8134 0.8678 1.716 0.9508 2.522 0.3489 3.401-0.6291 2.461 2.569 4.043 0.639-0.1121 1.3-0.1859 1.95-0.191 0.7213 0.4342 1.546 0.6522 2.236 1.142-0.2506 0.4714-0.2632 1.37-0.04691 1.855 0.4313 0.6956 1.463 0.8861 2.188 1.142 1.007 0.941 0.6648 2.279 1.57 3.045 0.377 0.3198 1.125 0.607 1.617 0.619 1.268 0.0309 2.259-0.8821 3.615-0.8089 1.735 0.0944 3.237 0.5784 5.042 0.4279l0.6659-0.476c0.2523-0.4508 0.3028-0.9575 0.3486-1.458 0.0263-0.2894 0.8488-5.928 0.8882-6.057 0.2322-0.7602 0.9325-1.577 1.046-2.332 0.099-0.6601-0.0944-1.301 0.095-1.998 0.913-1.273 2.538-1.761 3.427-3.379 0.3072-0.56 1.269-4.323 1.38-4.423l-0.238-0.9039c-0.3392-0.361-0.9399-0.7088-1.427-0.8089l0.095-0.5709c0.6378-0.5646 1.503-0.8146 2.236-1.237zm-0.8972 10.75c-1.725 0.1254-2.489 2.534-3.1 3.853l0.3329 0.9039 0.7609 0.2849c1.833-0.6767 3.908-2.918 2.808-4.947-0.288-0.0851-0.5546-0.1129-0.8011-0.095z"/>
	<path title="Quinara" d="m266.7 120c-2.147 0.0311-3.599 2.449-4.793 3.927-0.6973 0.8638-1.463 1.415-2.141 2.331-1.496 2.021-4.135 1.36-6.231 1.951-2.893 0.8157-3.742 3.44-7.469 3.948-2.045 0.2786-2.168-0.3249-3.71-0.476-1.316-0.1287-2.67 0.6533-3.948 0.476-1.481-0.2059-2.655-1.249-4.281-1.285-2.538-0.0555-4.694 1.251-7.278 0.9988-2.797-0.2729-8.014-3.212-10.27-2.855-0.8758 0.1384-1.505 0.746-2.236 1.19l-0.7028 1.409c-0.5366 0.7505-1.984 2.896-4.29 4.719s-3.733-0.0402-3.733-0.0402c-1.053 0.5755-2.292 0.7895-3.308 1.38-0.6292 0.3655-1.453 0.9468-1.999 1.427-1.16 1.021-2.063 2.443-3.234 3.474-0.9096 0.8003-2.147 1.5-2.917 2.41-0.282 0.3329-0.6039 0.6316-0.8402 0.9988-0.9021 1.404-0.4016 3.392-1.475 4.772-0.9204 1.183-2.95 2.92-3.14 4.472l1.142 2.283c-0.024 0.6578-0.2648 1.324-0.286 1.951-0.02 0.5955 0.6705 1.396 0.6659 2.284 1.189 0.7139 3.439 2.476 4.519 0.6178 0.0732-1.004-0.0538-2.064 0.1899-3.045 0.516-0.8889 3.333-1.114 4.424-1.38l0.5229 0.286 0.286 0.8558c-0.4079 0.3398-0.8375 0.6636-1.284 0.9519-0.0549 1.152 1.205 1.835 1.379 2.996-0.0366 0.9622-0.8879 1.386-1.094 2.284 0.0521 0.4147 0.3782 1.113 0.7609 1.332 1.702 0 3.958 0.2516 5.28-1.047v-1.522c0.3558-0.5921 3.939-2.866 4.756-3.045l0.2782 0.3531 2.951-0.9329 3.153-0.2704h2.297l3.964 0.7653 0.6748 0.3609 0.3095 0.6983c2.16-0.1419 1.86 2.035 1.926 3.449 0.0366 0.7888 0.7374 3.984 1.142 4.613 1.686-1.622 1.005-3.814 1.999-4.661l0.5709 0.3329c0.294 0.7219 1.113 2.108 2.046 1.998l0.4279-0.4279 0.6659-0.0481c0.715-0.7414 0.8272-2.565 0.4279-3.471-0.647-0.5268-1.793-1.785-2.474-2.046-1.166-0.4462-2.241-0.0784-3.283-1.142l0.4279-0.524 1.19-0.0469 0.095-0.762c-0.524-0.1156-1.142-0.3862-1.57-0.7139l-0.3799-0.7608c0.2872-0.4021 0.8627-0.8021 1.332-0.9508l0.9508 0.1899c0.4004 0.3078 0.7746 0.7162 1.047 1.142 0.417 0.2334 1.135 0.4325 1.618 0.381l0.5709-0.524c-0.4559-1.128 0.0967-1.717 0.381-2.71 0.3758-1.316 0.0499-3.094 1.902-3.426l0.762 0.286c0.5846 1.178-0.0618 2.194-0.8569 3.045-0.2277 1.349-0.2243 3.224-0.1899 4.613 0.6561 0.0772 1.341 0.0526 1.998 0l0.238 0.6659c-0.6836 0.8077-1.992 1.236-2.236 2.332 0.1281 0.4634 0.3518 1.051 0.6659 1.427l0.9988 0.048c1.138-0.5566 0.9245-1.104 1.285-2.046 0.1676-0.4382 0.6242-0.9376 0.8558-1.38 0.5091-0.1281 1.023-0.353 1.475-0.6178l-0.2849-0.9039 0.238-0.667 0.7608-0.3799 0.238-0.9039c-0.496-1.086-0.7986-2.439-0.9988-3.615 0.6435 0.115 1.299 0.1934 1.951 0.238 1.108-0.9816-0.024-2.42 0.3329-3.567l0.6659-0.476c0.786 0.3833 0.829 1.365 1.427 1.951 0.9605 0.3232 2.185 0.1362 3.188 0.095l0.6178 0.5229-0.095 0.7609c0.3976 0.7557 0.9199 1.438 1.237 2.236l-0.4279 0.6659c-1.491 0.7448-2.836-0.3198-3.807-1.332l-0.4748 0.7139c0.0767 0.8746-0.2374 1.822-0.7608 2.521l0.0469 0.8569c0.7877 0.1293 1.539 0.8616 1.76 1.618-0.5286 0.6573-2.968 0.8776-3.805 0.8558l-0.5709 0.4279c0.0864 0.8112-0.5675 1.527-0.9508 2.189 0.3015 0.9055 0.6653 1.795 0.7128 2.759l0.619 0.5229c0.8174-0.0967 0.9943-1.018 2.046-1.093l0.476-0.667c-0.1075-0.822-0.1178-2.082 0.5229-2.712 0.965 0.703 0.5206 2.347 1.618 2.902 0.703 0.0458 1.498 0.0114 2.188-0.1419l0.286-0.8089c-0.2385-0.5045-0.2946-1.364-0.1899-1.904l0.5709-0.5709c0.4822 0.1413 1.175 0.1876 1.665 0.048 0.1916-0.8661 0.4988-1.712 0.8569-2.522l0.6659-0.238c0.0332 0.4616 0.4205 1.215 0.8569 1.428 1.772 0.2128 3.244-1.934 4.899-2.427 0.0812 0.9261 0.6819 1.736 0.5709 2.665-2.314 0.1075-2.113 1.248-3.662 1.808-0.9044 0.3266-1.926 0.385-2.855 0.6659-0.2197 0.4862-0.5178 0.9662-0.8558 1.38l0.0469 0.9039 0.7139 0.429c0.6687-0.0795 1.339-0.1916 1.998-0.3329l0.7139 0.4279 0.286 0.9039c0.516 0.7482 1.779 0.8106 2.567 0.5709 0.3707-0.7402 0.9462-1.43 0.9988-2.284l-0.2849-0.9039 0.238-0.7128 1.047-0.0961c0.401-0.2769 0.7243-1.047 0.7128-1.522 0.3244-0.3867 0.7488-0.7511 1.19-0.9988 0.0509 0.7803 0.2712 1.941 0.9988 2.378l-0.048 0.8089-0.6659 0.429c-1.01 1.806-0.0276 1.629-2.046 3.566l0.048 0.9039c1.01-0.1464 1.977-0.4903 2.997-0.5709l0.3329 0.7608c-0.167 0.6121-0.2586 1.269-0.2849 1.903l0.381 0.8089 0.8078 0.286 0.762-0.381c0.5148-1.776 1.553-5.07 3.947-5.042l0.476 0.619c-0.1768 0.8632-0.869 1.419-1.046 2.283 0.1487 0.4691 0.5486 1.046 0.9508 1.333l0.1899 0.9508-0.6659 0.476-1.189 0.048-1.046 1.142-0.191 0.9039 0.3329 0.8089c0.5017 0.2746 1.033 0.5143 1.57 0.7128 2.191-0.2929 4.667-0.8209 6.85-0.5229 0.107-0.7271 1.379-2.031 1.999-2.427h0.6659l0.2849 0.8569c-0.1985 0.9422-0.4571 1.883-0.4279 2.854l-0.5709 0.5709-1 0.143c-0.238 0.4496-0.5755 0.893-0.9508 1.237l-0.9988 0.143-0.6659-0.476h-0.9039c-0.4382 0.2374-0.9176 0.6756-1.19 1.094l-0.9039 0.238c-0.6315-0.8438-2.249-1.175-3.234-0.9988-0.3827 0.5343-1.189 1.24-1.903 1.095l-0.4279-0.6659-0.9519 0.0469c-0.4084 0.3547-0.9685 0.6699-1.475 0.8569-0.9055 1.409-1.179 3.275-2.331 4.328l-0.9039 0.048-0.476-0.667c0-0.798 0.3381-3.496 0.2849-3.805-1.005-0.989-3.134-0.2627-3.281-2.331 0.905-0.5114 3.849 0.012 5.136-0.095 0.3987-0.234 0.7894-0.9222 0.8089-1.38 0.8958-0.0669 1.939 0.3421 2.76-0.095l-0.3184-0.4436c-0.2294-0.3215-0.5282-0.4638-0.7765-0.7452-0.6046-0.687-0.8008-1.695-1.363-2.41l-0.3486-0.4447c-0.814-0.4416-1.95-0.3261-2.855-0.4279l-0.3329 0.5709c0.3987 0.6864 1.007 1.185 1.285 1.95l-0.238 0.667c-0.925 0.0349-2.106-0.0388-2.95 0.3799-1.175-1.152-0.1877-3.141-1.427-4.328-1.518-1.455-3.057-0.5498-4.281-1.285-0.7202-0.4319-1.011-1.25-1.808-1.618-0.8541 0.0887-1.423 0.8255-1.951 1.428-0.5503-0.0738-1.497 0.0738-1.95 0.4279l-0.286 0.8089 0.238 0.8558 0.3329 0.238c0.6516 0.7437 1.461 1.472 2.283 2.141-0.3735 0.3255-0.7569 0.8266-0.9508 1.285 0.4056 0.3261 0.7832 0.7248 1.094 1.142l-0.238 0.7139c-1.479 0.6195-0.5149 2.209-1.237 3.186l-0.9508-0.1911-0.1899-0.9039c-0.4302-0.1991-1.161-0.2322-1.618-0.143-0.1871-0.6195-0.3289-1.262-0.429-1.902l-0.8089-0.286-0.476-0.6178-0.0469-0.9039c0.5526-0.5732 1.055-1.309 1.237-2.093l-0.238-0.905-0.619-0.476c-0.4496 0.0852-1.075 0.5423-1.284 0.9519l-0.7139-0.238-0.381-0.762-0.7609 0.143-0.5709 0.5709c-0.9318-0.3701-3.47-1.231-4.377-1.189l-0.7609 0.4279 0.1911 0.8558 0.8558 0.286c0.4628 0.6338 0.7923 1.351 1.237 1.998 0.7053-0.0566 1.435-0.0704 2.141 0l0.381 0.524-0.4279 0.7128c-0.0732 0.5217 0.075 1.437 0.4279 1.856 0.5949 0.4799 1.558 0.5784 1.998 1.189-0.901 0.3335-2.942 0.8804-3.853 0.8089l-0.7128-0.381c-0.0555-0.6372-0.1814-1.294-0.381-1.902-0.7299-0.3478-1.842-0.3576-2.331-1.047-0.0921-0.5051-0.3982-1.154-0.7608-1.523l-0.8569-0.2849-1.046 1.141c-3.588 0.5623-2.868 1.04-5.375 2.712 0.25 0.3335 0.9903 0.5818 1.379 0.6178 0.8586-0.2334 1.724-0.5618 2.474-1.047l0.8089 0.238c0.5486 1.442 1.978 1.824 3.283 2.284 0.183 0.7368-0.1196 1.071-0.238 1.713-0.381 2.07-0.5939 3.384-3.283 3.234l-0.2849-0.9039c0.282-0.8729 0.405-1.846 0.2849-2.759l-0.6659-0.191-0.619 0.429-0.7128-0.381-0.762 0.333c-0.119 0.4862-0.472 1.1-0.8558 1.428l-0.8089-0.0961c-0.7236-0.7682-0.9554-2.176-2.094-2.474l-0.3799 0.6659c0.1362 0.5944 0.3106 1.189 0.5229 1.761l-0.6659 0.476-0.191 0.9039c0.4696 0.7717 0.7523 1.766 0.8089 2.664l-0.6659 0.476c-0.6178 0.0955-1.449 0.0715-2.045-0.143l-0.619-0.5709c-2e-3 -0.6166-0.0704-1.251-0.1899-1.856l-0.7139-0.4279-0.6659 0.2849c-0.3066 0.8226-1.261 1.267-2.093 1.285-0.484-0.2986-1.031-0.5377-1.571-0.7139l-0.8558 0.286-0.191 0.9039 0.7139 0.381-0.1899 0.9039c0.1905 0.4119 0.7174 0.925 1.141 1.094 0.3518 0.3844 0.4731 1.276 0.3329 1.76-0.3466 0.3958-0.7134 0.7775-1.094 1.142l-0.8089-0.0469c0.226-1.178-0.8782-2.009-1.713-2.617l-0.9039 0.238c-0.1104 2.139 1.104 3.087-1.712 4.234l-0.524-0.429c0.044-0.5583 0.1499-1.122 0.286-1.665l-0.476-0.476c-0.8878 0.3615-2.073 1.098-2.855 1.665l-1.046-0.0469-0.381-0.762-0.9039 0.048c-0.4862 1.086-1.479 4.185-0.7139 5.184 0.7396 0.508 2.027 0.1207 2.855 0l0.7128 0.429 0.286 0.6178c-0.5343 0.6035-1.205 1.121-1.903 1.523l-0.286 0.8078c-1.411 1.224-2.559 0.8325-2.141 3.426-0.4496 0.9622-1.327 1.669-1.808 2.664-0.5663 1.171-0.337 2.423-0.9039 3.52-0.3701 0.7168-0.9943 1.293-1.379 1.95-0.2769 0.4725-0.3627 1.189-0.5229 1.713-0.6807 2.229-0.7155 4.554 2.331 4.471 1.877-0.0509 3.041-2.024 4.091-2.189 5.135 1.84 5.398-5.229 7.42-6.802 0.6327-0.1945 1.296-0.3335 1.951-0.4279 1.295-1.713 3.527-1.577 4.614-3.329 0.7557-1.217 0.5298-2.7 0.9519-4.043 0.8512-2.709 4.296-5.268 7.088-5.422l0.6659 0.4279 0.1899 1c-0.8884 1.243-3.338 1.268-4.661 3.328-0.7465 1.161-0.3558 2.549-0.476 3.807-0.0818 0.8569-0.5898 1.749-0.7128 2.569-0.528 3.519 3.808 2.968 5.946 2.569 1.355-1.478 8.149-8.489 9.826-7.852l8.612-7.591 6.6 2.383 5.317 2.383 3.116 4.217 6.233 2.2 4.949-2.2 8.118-2.471 0.314-0.095c4.881-2.196 4.417-2.345 8.677-6.294 0.977-0.9055 1.723-1.244 2.506-2.323 1.327-1.828 4.025-14.59 5.133-17.05l3.544-5.133c2.501-3.622 4.901-7.365 7.07-11.13-1.153 0.01-2.604-0.2033-3.22-0.2961-0.7505 1.205-0.9279 1.181-2.192 1.245-0.5337 0.0263-1.086-1.077-0.9843-1.513 0.1939-0.834 0.9079-1.86 1.33-2.399l0.1788-0.1542c0.4496-0.2551 1.102-0.3558 1.673-0.3341l0.1866-1.337 0.0771-0.2212c0.5057-0.8701 1.43-1.785 2.324-2.319 0.0509-0.2357 0.0395-0.5727-0.0234-0.8301-2.072-0.2014-2.896 2.863-4.357-0.7262-0.1367-0.3352-0.2805-0.6298-0.5631-0.9061l-0.1687 0.0849c-0.262 1.499-0.3435 1.603-1.56 2.175-0.3712 0.1745-1.536-0.2016-1.687-0.6112-0.5915-1.603 0.0228-3.714-0.4748-4.771-0.8981-1.908-3.128-3.063-4.629-1.817-0.1865 0.806-0.3155 2.885-0.4514 3.546-0.2972 1.43-1.469 1.916-2.585 2.248-2.92 0.8684-6.32 0.3454-8.61-1.761-1.645-1.513-1.512-2.806-3.948-3.947-2.295-1.075-6.721-0.8272-7.707-1.856-2.031-2.119-1.416-3.489-2.093-5.518-0.8552-2.568-2.846-2.565-2.046-5.946 0.1413-0.5961 0.4914-1.98 0.8089-2.474 1.227-1.909 3.348-3.359 2.948-5.946l0.429-0.6659c0.1979-1.424-0.5595-2.216-1.713-2.853-0.1494-0.0201-0.296-0.0289-0.4391-0.0268zm-53.93 9.492-0.7608 0.191c-0.6075 0.4502-1.033 1.333-1.237 2.045l-0.8089 0.334c-0.4136-0.7288-0.7282-1.507-1.142-2.236h-0.9039c-1.595 1.14-4.42 2.25-3.662 4.613l1.189 1.095 1.865 0.1575c0.4828 0 1.287-0.3215 1.931-0.8581 0.6435-0.5366 2.466-2.682 2.842-3.057 0.3758-0.3753 1.354-1.714 1.354-1.714zm-33.85 28.51c-0.6434 2e-3 -1.266 0.2985-1.618 0.8759-0.028 0.5103 0.0937 1.462 0.4078 1.896 1.156-0.01 1.797-1.197 2.201-2.121l-0.3497-0.5553c-0.2098-0.0654-0.4268-0.0967-0.6413-0.0961z"/>
	<path title="Gabu" d="m385.7 0.6165 3.845 0.0143 1.257 0.2483-2e-3 -0.1865 6.382-0.1413 3.037 0.0103 13.34 0.0475 1.675 0.2814 0.7568-0.2683 5.039-0.1974 1.459 0.2826 4.372 0.1436 1.213-0.2357 12.04-0.115 1.734 0.1819 0.548 0.0578 20.34-7e-3h0.9032l6.041-0.0532-2e-3 -0.1865 3.042 0.234 10.7-0.0406 4.8-0.0172 0.8661 3.349 0.1156 4.4 0.5303 4.024 0.5766 0.7785 0.5869 1.935 0.0852 1.043 1.353 4.364 0.0543 0.1745 0.5995 3.315 0.3472 0.6687 2.296 1.958 1.152 1.408 2.83 6.616 0.365 2.683-0.4067 1.476-0.1081 0.393-3.787 5.327 0.0143 1.604 0.3998 2.309 0.6996 1.859 0.1653 1.49-1.043 2.209 0.0589 2.349 0.234 0.7442-0.1579 0.5892-0.393 1.467-0.4885 0.5263-2.991 0.8083-0.8666 0.7156-0.3318 1.085-0.3083 0.6035-0.0749 0.147-0.8644 0.1596-0.7877 1.05-0.8329 2.167-0.6824 2.731-0.901 1.089-0.9084 0.1939-1.132-0.6012-2.002-2.322-1.835-1.663-1.177-0.2145-0.715 0.6395-0.9221 3.14-0.8684 0.4542-2.199 0.0549-2.012-0.2826-0.687-0.4794 1.68-3.147 0.2134-1.717-0.1213-0.8941-0.2923-0.4233-0.322-0.4668-0.4914 0.1905-0.8266 0.9015-2.314 4.42-0.8472 0.6784-0.8203-0.5526-0.2906-2.907-0.6487-0.4422-1.101-0.1402-1.893 0.3884-1.063-0.1035-0.1922 1.053 0.2048 0.4022 0.8786 0.7762 0.6578 1.487 0.0446 0.7454-0.369 1.318-2.342 0.9799-8.189 0.2923-1.205 0.9805-0.5469 2.341-1.237 1.703-1.322 0.5709-1.288 0.1602-1.314 1.466 0.0589 2.181 0.3083 0.6882 1.088 2.938 1.268 1.855 1.049 1.354 1.598 0.5074 4.477 0.2574 1.862 0.4308 0.917 0.6636 1.431 2.934 1.147 0.9965 3.882 1.57 0.568-0.0795 1.368 0.361 2.17 0.9879 0.6876 0.5537 0.5806 1.263 0.5354 1.718 0.52 1.667 1.611 2 1.07 0.9604 2.437 1.247 10.11 2.563 1.333 0.7345 0.0126 0.306 0.036 0.8878-1.24 5.419-0.3181 6.717-0.7957 4.222-0.0921 2.388 0.099 0.6493 0.9073 5.944 0.4187 4.435-0.3089 3.547-0.6298 1.535-0.4319 2.54 0.7316 2.134 0.0463 0.1356 0.2894 6.898-1.019 0.4187-1.593-0.3221-3.046 2.301-1.86 0.6149-3.664 0.7751-0.3884-1.153-1.092 0.643-0.7997-0.5909-0.9095-0.179-0.3816-0.3329-0.1956-0.7814 0.2963-0.786-0.496-0.4811 1.012-1.165-0.1178-0.484-0.6819-0.0692-1.014 0.9776-1.287-0.0641-1.128 0.8672-0.492 4e-3 -1.114-1.931-0.6824-0.1064-0.2671-0.2963 0.1064-0.822 0.8266-0.715 0.5228-0.8249-0.0789-0.3724-0.9873-0.365-0.8815-1.224-1.174-0.0275-1.055 0.6058-0.6516-0.9273-0.7465 1.2-0.4816 1.16 0.3918 1.526 0.4954 0.4062 1.275-1.353 0.4216 0.5932 0.1207 0.8575-0.5206 1.086-0.4508 0.4142-0.5841 2.165-0.5154 1.911-0.8729-0.2912-1.216 3.815-2.83 0.1104-1.406-0.5469-2.365-1.806-1.859-0.3936-0.6384 0.4908-1.031 2.993-1.355 0.8335-4.299 1.606-2.341 0.5446-1.363 0.0126-2.625-1.355-1.974-0.5783-1.475 0.1258-3.999 1.307-1.704 1.271-0.4748 0.3541-2.183 1.215-0.9845-0.0646-2.242-0.8735-1.816-1.768-2.85-2.775-2.689-0.0847-3.664 0.7454-4.829-1.966-1.63-0.2443-1.817 0.0183-3.318 1.153-1.675-0.8409-0.7682-0.9622-0.758-0.1041-4.541 6.948-3.802 5.262-0.1276 0.0664-17.32 9.011-0.8746-2.499-0.631-0.3604-0.8558-1.351-2.027-2.387-0.901-1.396-0.1802-0.901 0.135-2.117 0.1911-0.3873-0.6996-0.0818-2.216 0.087-1.07-0.0921-0.1287-0.0257c-1.452-0.4588-0.973-0.2723-2.229-1.688l-0.4708-0.6556-0.7711-1.525-0.3449-0.3472c-0.0412-0.1299 0.1316-0.9668 0.1264-1.094-0.0978-2.451-0.353-4.965 0.1802-7.387 1.049-4.769 6.275-2.907 7.973-6.666-0.2403-2.229-2.448-2.491-3.378-4.369-0.2466-1.329 0.405-2.627 0.405-3.918 0-1.117-0.4428-2.659-0.631-3.783-0.4931-2.959-1.69-9.222-0.6756-11.8 0.4164-1.058 3.177-6.614 2.658-7.927-0.7436-1.21-2.241-2.01-3.363-2.777-1.111-0.7602-4.398-3.193-2.808-5.06 1.308-1.535 2.454-1.706 2.748-4.009 0.218-1.712 0.981-5.794 0.4502-7.522-1.829-1.01-6.942-2.491-7.488-4.73-0.2317-0.9507 0.3329-1.721 0.4954-2.612 0.1447-0.7911-0.1293-2.088 0.5406-2.703 2.915-1.46 4.516 0.6722 6.313-0.0898 1.242-0.5268 2.122-2.608 3.877-2.748 1.844 1.038 3.245 0.6447 4.914-0.496 0.5062-0.985-0.0921-3.89-0.0927-5.045 0-0.6899 0.3129-1.245 0.179-2.026-1.619-2.784-3.039-1.19-4.961-2.928-1.528-1.381-1.355-3.904-2.078-5.72-0.7208-1.81-1.611-2.872-1.896-4.955-0.242-1.777 3.153-4.035 2.93-6.847-1.271-3.547-3.776-4.031-7.169-4.955-2.358-0.6424-2.865-3.81-4.057-3.874l-2.724-0.0566 0.175-0.8603c0.3272-0.2769 0.5823-0.6201 0.8295-0.9673 0.353-0.496 1.68-1.48 0.5789-1.885-1.299-0.4777-0.7866-0.3558-1.891-0.1213 0.4588-1.103 1.867-2.495 2.425-2.727l0.8329 0.9416c0.6418 0.7254 6.391-0.5062 6.519-1.642 0.163-1.452 0.0521-1.173-0.7082-2.32l-0.0646-0.1058c-0.381-1.252-0.1076-2.502-1.042-3.622l0.0475-0.5148 0.2317-0.2506 0.5211-0.0246c0.5812 0.4502 0.4159 2.109 1.697 2.686l0.2168 0.0526c0.1384 8e-3 0.9118 0.1241 1.182-0.0561 0.9559-0.6361 0.8609-0.4645 1.085-1.57l0.3129-0.3381 0.5143-0.1544c0.8672 0.3861 2.412 0.6859 2.914-0.5051 1.351-3.207-3.093-9.036-5.618-8.816l-0.167 0.0389c-1.431 0.5532-3.88 2.79-5.291 2.449-0.171-0.087-0.2934-0.2317-0.4096-0.3821-1.321-1.709-1.997-3.877-1.816-6.014 0.5818-1.137 1.465-1.903 2.377-1.61l0.2237 0.3455c-0.7808 1.611-1.487 1.047-0.8523 3.162 0.4044 1.346 3.087 0.1447 3.82-0.3152 0.2345 0.298 0.3015 0.8918 0.5686 1.109 1.579 1.282 3.568-0.5989 4.582-0.1482l0.3409 0.3146c0.0629 0.8289 0.349 2.155 1.344 2.689l0.2168 0.0681 0.8443 0.0944c2.098-0.0234 2.756-3.876 5.26-3.713 1.475 1.159 3.259 3.746 5.447 2.457l0.099-0.0726c1.61-1.455 3.141-4.028 2.946-6.402-5e-3 -0.0543-0.1539-0.3604-0.1939-0.3981-0.85-0.7848-0.8552-0.9204-1.829-0.2711l-0.1968-0.0206c-0.5366-1.996-0.9444-1.657-2.944-1.835-0.7162-0.5795-0.969-2.433-1.466-3.345l0.1293-0.6378 0.1024-0.5337c0.2506-1.391-0.8947-2.647-0.5617-4.02 0.3787-1.561-0.3266-2.885-0.3358-4.432l0.1808-0.29h0.2723c0.2666 0.3072 0.5434 0.536 0.8054 0.7345l0.4639 0.3438c1.023 0.7694 0.7368 1.79 1.646 2.561l0.1928 0.1104c2.186 0.7637 4.844-1.254 5.871-2.646l0.0995-0.2076c0.23-0.8798 0.01-2.264-0.1682-3.079 0.7511-1.197 2.642-2.369 2.917-3.741v-0.2414l-0.1464-0.7625z"/>
	<path title="Bafatá" d="m302 4.184c0.623 4.29-1.365 5.18-3.243 8.663-0.3941 0.7311-0.5783 1.807-1.036 2.478-1.337 1.96-3.741 3.543-4.189 5.991-0.437 2.383 4.5 4.577 5.81 5.54 1.672 1.229 3.291 3.44 4.273 5.381-1.336 1.404-1.797 1.755-3.411 2.068-1.497 0.29-2.088 1.931-3.385 2.541-1.831 0.8615-9.6 2.414-11.43 2.325l-0.0383 0.6086 0.3015 5.635c0.111 2.016 0.5223 4.152 0.4674 6.171-9e-3 0.3249-0.2002 0.7168-0.1859 1.036l0.2414 5.405c0.0841 1.881 4.934 4.798 6.177 6.171 0.981 1.084-0.3936 3.214-0.6561 4.189-0.2002 0.7442-0.3896 2.022-0.4222 2.793-0.0635 1.467 0.0727 3.031 0.1076 4.504 0.0177 0.7322 0.1539 2.491 0.3873 3.153l-0.3644 0.7654c-0.6493-0.0789-1.053-0.4216-1.618-0.5852-1.164-0.3375-3.022-0.1201-4.231-0.2254-0.1768-0.0154-1.516-0.1144-1.844-0.3152-1.522-0.9301-3.054-2.015-4.774-2.557-1.473-0.9862-2.634 0.7105-3.953 0.7105-0.9725 0-1.575-0.9278-2.607-0.8558-1.796 1.13-4.52 4.069-5.433 5.901 0.0183 0.1064 0.0967 0.7013 0.1316 0.766l2.411 4.459c0.1161 0.2145 0.4182 0.3278 0.5371 0.5406 0.2832 0.5074 0.3918 1.111 0.6693 1.621 0.6481 1.19 1.591 2.247 2.24 3.513 0.0595 0.1156 0.433 0.5949 0.4479 0.6756 0.3135 1.689 0.1802 3.401 0.6653 5.089 1.214 1.776 4.17 0.651 4.892 2.165 0.6395 1.319 5.582 2.843 7.555 4.313-2.099 1.057-2.426 4.746-1.559 6.336 0.5177 0.949 1.541 2.475 1.794 3.483l-0.1876 0.4828c-0.7368 0.5291-4.726 2.61-5.717 1.749l-0.4273 0.2603 0.0955 0.7614c-1.788 0.3535-4.529-0.1916-5.946 0.8089-0.7883 2.724-0.429 5.635-1.57 8.324-0.9136 2.154-4.75 4.32-4.994 6.232-0.1934 1.505 1.723 6.385 3.187 6.945 1.52 0.5818 3.908-1.601 8.515 1.855 2.329 1.747 3.98 5.265 6.136 7.516 1.835 0.4027 2.833 0.028 4.567-0.4285l0.4285-0.4754 0.8257 0.0358c0.1359-0.6616 0.264-2.74 0.4505-3.546 1.501-1.246 3.731-0.0915 4.629 1.817 0.4977 1.057-0.1161 3.167 0.4754 4.771 0.151 0.4096 1.315 0.7854 1.686 0.6109 1.216-0.572 1.298-0.6773 1.56-2.176l0.1693-0.0847c0.2826 0.2763 0.4256 0.5715 0.5623 0.9067 1.461 3.59 2.286 0.524 4.358 0.7254 0.0629 0.2574 0.0738 0.5955 0.0229 0.8312-0.8941 0.5349-1.818 1.448-2.324 2.318l-0.0767 0.222-0.1865 1.337c-0.5703-0.0217-1.223 0.0784-1.673 0.3335l-0.179 0.1544c-0.4216 0.5383-1.136 1.565-1.329 2.399-0.1018 0.4353 0.4502 1.539 0.9839 1.512 1.264-0.0635 1.442-0.0395 2.193-1.245 0.6161 0.0927 2.067 0.3061 3.1 0.2994 0.3622-2e-3 0.6729-0.0319 0.8778-0.1032 2.89-1.011 2.837 1.827 3.83 3.492-1.03 4.922-1.333 4.604 3.55 7.86 1.943 1.296 3.465 1.695 4.755 3.818l0.3335 0.5537c0.8523 1.376 1.847 1.697 3.505 1.66 0.6252-0.0137 1.107 0.0978 1.702-0.1642 2.323-1.022 3.617-2.24 4.584-4.624 0.5251-0.119 1.085-0.3272 1.617-0.6561 0.7145-0.6052 0.7328-2.29 0.6824-3.124 0.1722-0.1848 0.4725-0.3884 0.7219-0.4857 1.969 0.6658 1.783 2.834 3.194 4.134l0.1567 0.1047c0.8752 0.405 3.023 1.017 4.135-0.2385 1.426-1.611 0.6315-2.852 4.089-2.371 4.269 0.5944 10.77 0.6035 14.46-1.805l0.5057 0.091c-0.0412-0.1299 0.1316-0.9668 0.1264-1.094-0.0978-2.451-0.353-4.965 0.1802-7.387 1.049-4.769 6.275-2.907 7.973-6.666-0.2403-2.229-2.448-2.491-3.378-4.369-0.2466-1.329 0.405-2.627 0.405-3.918 0-1.117-0.4428-2.659-0.631-3.783-0.4931-2.959-1.69-9.222-0.6756-11.8 0.4164-1.058 3.177-6.614 2.658-7.927-0.7436-1.21-2.241-2.01-3.363-2.777-1.111-0.7602-4.398-3.193-2.808-5.06 1.308-1.535 2.454-1.706 2.748-4.009 0.218-1.712 0.981-5.794 0.4502-7.522-1.829-1.01-6.942-2.491-7.488-4.73-0.2317-0.9507 0.3329-1.721 0.4954-2.612 0.1447-0.7911-0.1293-2.088 0.5406-2.703 2.915-1.46 4.516 0.6722 6.313-0.0898 1.242-0.5268 2.122-2.608 3.877-2.748 1.844 1.038 3.245 0.6447 4.914-0.496 0.5062-0.985-0.0921-3.89-0.0927-5.045 0-0.6899 0.3129-1.245 0.179-2.026-1.619-2.784-3.039-1.19-4.961-2.928-1.528-1.381-1.355-3.904-2.078-5.72-0.7208-1.81-1.611-2.872-1.896-4.955-0.242-1.777 3.153-4.035 2.93-6.847-1.271-3.547-3.776-4.031-7.169-4.955-2.358-0.6424-2.865-3.81-4.057-3.874l-2.724-0.0566 0.175-0.8603c0.3272-0.2769 0.5823-0.6201 0.8295-0.9673 0.353-0.496 1.68-1.48 0.5789-1.885-1.299-0.4777-0.7866-0.3558-1.891-0.1213 0.4588-1.103 1.867-2.495 2.425-2.727l0.8329 0.9416c0.6418 0.7254 6.391-0.5062 6.519-1.642 0.163-1.452 0.0521-1.173-0.7082-2.32l-0.0646-0.1058c-0.381-1.252-0.1076-2.502-1.042-3.622l0.0475-0.5148 0.2317-0.2506 0.5211-0.0246c0.5812 0.4502 0.4159 2.109 1.697 2.686l0.2168 0.0526c0.1384 8e-3 0.9118 0.1241 1.182-0.0561 0.9559-0.6361 0.8609-0.4645 1.085-1.57l0.3129-0.3381 0.5143-0.1544c0.8672 0.3861 2.412 0.6859 2.914-0.5051 1.351-3.207-3.093-9.036-5.618-8.816l-0.167 0.0389c-1.431 0.5532-3.88 2.79-5.291 2.449-0.171-0.087-0.2934-0.2317-0.4096-0.3821-1.321-1.709-1.997-3.877-1.816-6.014 0.5818-1.137 1.465-1.903 2.377-1.61l0.2237 0.3455c-0.7808 1.611-1.487 1.047-0.8523 3.162 0.4044 1.346 3.087 0.1447 3.82-0.3152 0.2345 0.298 0.3015 0.8918 0.5686 1.109 1.579 1.282 3.568-0.5989 4.582-0.1482l0.3409 0.3146c0.0629 0.8289 0.349 2.155 1.344 2.689l0.2168 0.0681 0.8443 0.0944c2.098-0.0234 2.756-3.876 5.26-3.713 1.475 1.159 3.259 3.746 5.447 2.457l0.099-0.0726c1.61-1.455 3.141-4.028 2.946-6.402-5e-3 -0.0543-0.1539-0.3604-0.1939-0.3981-0.85-0.7848-0.8552-0.9204-1.829-0.2711l-0.1968-0.0206c-0.5366-1.996-0.9444-1.657-2.944-1.835-0.7162-0.5795-0.969-2.433-1.466-3.345l0.1293-0.6378 0.1024-0.5337c0.2506-1.391-0.8947-2.647-0.5617-4.02 0.3787-1.561-0.3266-2.885-0.3358-4.432l0.1808-0.29h0.2723c0.2666 0.3072 0.5434 0.536 0.8054 0.7345l0.4639 0.3438c1.023 0.7694 0.7368 1.79 1.646 2.561l0.1928 0.1104c2.186 0.7637 4.844-1.254 5.871-2.646l0.0995-0.2076c0.23-0.8798 0.01-2.264-0.1682-3.079 0.7511-1.197 2.642-2.369 2.917-3.741v-0.2414l-0.1464-0.7625-0.6109 0.1236-27.04-0.0933-41.77-0.1132-0.1859-5.7e-4 -2.392 0.1785-14.5-0.2608c1.055 0.8277 1.954 2.618 2.134 3.857z"/>
	<path title="Oio" d="m177.4 113 0.4954 3.917c0.0944 0.5326 0.516 1.086 0.8106 1.488 2.535 3.456 3.052 1.684 6.126 3.018 0.4124 0.5606 0.6241 2.043 0.6756 2.703 0.5749 1.007 4.159 0.5103 5.963 2.907 1.014-0.3094 2.138-0.4699 3.006-1.268 1.879-1.729 1.984-4.624 4.662-5.47 2.047-0.6464 3.758 0.8054 5.803 0.5234 1.841-0.9444 1.837-3.127 4.138-3.853 2.699-0.8523 10.5-1.46 12.99-0.095 0.8632 0.4731 2.748 2.343 3.71 3.092 0.6447 0.5011 2.457 2.621 2.854 2.806 1.069 0.5011 3.861 0.032 5.232 0.238 3.67 0.5503 7.615 3.176 11.32 3.092 2.68-0.0612 7.167-3.87 8.705-5.946 0.9828-1.326 1.428-2.802 2.997-3.663 1.638-0.8981 3.213-0.635 4.994-0.8564 2.265-1.303 3.503-4.801 7.563-2.046 0.4868 0.3301 0.9593 0.5022 1.332 0.9988 0.524 0.2157 1.416 0.2105 1.951 0.0475 0.8666-0.9032 3.156-1.55 4.329-1.094 0.5366 0.584 1.272 0.8907 1.808 1.475l-0.5709-0.4285c0.8958 0.7213 1.361 1.673 2.093 2.521l0.4273-0.2603c0.9908 0.8615 4.98-1.22 5.717-1.749l0.1876-0.4828c-0.2528-1.007-1.276-2.534-1.794-3.483-0.8672-1.59-0.5406-5.279 1.559-6.336-1.973-1.47-6.915-2.993-7.555-4.313-0.7225-1.514-3.678-0.389-4.892-2.165-0.4851-1.689-0.3518-3.401-0.6653-5.089-0.0149-0.0807-0.3884-0.56-0.4479-0.6756-0.6487-1.266-1.591-2.324-2.24-3.513-0.2774-0.5097-0.3861-1.114-0.6693-1.621-0.119-0.2128-0.421-0.3261-0.5371-0.5406l-2.411-4.459c-0.0349-0.0646-0.1133-0.6596-0.1316-0.766 0.913-1.831 3.637-4.771 5.433-5.901 1.031-0.0721 1.634 0.8558 2.607 0.8558 1.32 0 2.48-1.697 3.953-0.7105 1.72 0.5417 3.252 1.627 4.774 2.557 0.3284 0.2008 1.668 0.2998 1.844 0.3152 1.21 0.1053 3.068-0.1121 4.231 0.2254 0.5646 0.1636 0.9685 0.5063 1.618 0.5852l0.3644-0.7654c-0.2334-0.6618-0.3695-2.421-0.3873-3.153-0.0349-1.473-0.171-3.037-0.1076-4.504 0.0326-0.7711 0.222-2.048 0.4222-2.793 0.2626-0.9748 1.637-3.105 0.6561-4.189-1.242-1.372-6.093-4.289-6.177-6.171l-0.2414-5.405c-0.0143-0.3192 0.1768-0.711 0.1859-1.036 0.0549-2.019-0.3564-4.155-0.4674-6.171l-0.3015-5.635 0.0383-0.6086c1.829 0.0887 9.598-1.464 11.43-2.325 1.297-0.6104 1.888-2.251 3.385-2.541 1.614-0.3129 2.075-0.6636 3.411-2.068-0.9816-1.94-2.6-4.152-4.273-5.381-1.311-0.9633-6.247-3.157-5.81-5.54 0.4485-2.448 2.852-4.031 4.189-5.991 0.4576-0.671 0.6418-1.746 1.036-2.478 1.878-3.483 3.866-4.373 3.243-8.663-0.1802-1.238-1.078-3.029-2.134-3.857l-3.802-0.0681-0.1327-2e-3 -1.175 0.2385-1.142-0.1722-5.393 0.143-14.98-0.4033-3.608 0.159-2.322-0.2671-4.933 0.4754-1.676-0.3135-8.435 0.00157-2.397-0.1916-1.208 0.576-1.33 0.0183-6.532 2.849-6.022 3.851-2.866 1.42-6.459 2.478-2.634 1.678-5.137 4.557-3.945 2.622-0.8586 0.9828-1.406 1.013c6.211 11.27 0.9353 19.4 1.7 21.73l0.1338 0.5978c-3.608 0.7013-5.54 3.96-8.805 5.284-1.086 0.4405-2.686-0.671-2.951-1.669-0.2242-0.8449-0.4616-1.856-0.508-2.825l-0.2597-0.1556c-0.9971-0.0452-3.679 0.81-4.168 0.5846-0.7236-0.3324-2.313-0.9748-3.093-0.9427-2.664 0.9158-2.798 4.736-5.349 4.916l-0.2294-0.0275c-5.546-1.782-2.877 1.987-6.6 3.131-0.6184 0.1905-1.703 0.4382-2.134 0.885-0.31 0.5663-0.4571 1.748-0.5183 2.397l-0.0606 0.2134c-0.8014 1.619-2.469 0.9953-3.6 1.88l-0.3158 0.2557c-0.2139 0.1733-0.484 0.3878-0.7797 0.5303l-0.1596 0.0509-1.036 0.1802-0.1464 7e-3c-1.782-0.123-4.346-1.141-5.921 0.1121l-0.0589 0.3918c0.3947 0.4639 1.407 1.888 1.139 2.578-0.4468 1.148-0.4422 1.27-1.76 1.467-0.9153 0.1361-1.984 5.7e-4 -2.829 0.3953-0.4714 0.2202-1.806-0.4954-1.548-1.174 0.2242-0.5892 0.4039-1.676 0.2883-2.214l-0.1047-0.0629c-0.9759 1.041-1.069 2.165-2.342 3.218-0.6407 0.5297-1.414 0.9719-1.946 1.619 1.921 0.5835 1.68 0.1893 2.598 1.441 0.2889 0.3941-0.1836 1.563-0.6172 1.705-0.4662 0.1527-2.401 0.9181-2.831 1.347 0.3426 0.5795 0.5394 1.539 0.9296 1.948 0.9416 0.9856 1.864 2.02 2.838 2.973 1.145 1.119 4.346 2.87 4.684 4.369 1.695 1.589 4.473 1.958 6.621 2.523 1.815 0.4765 2.702 4.888 2.342 6.351-1.209 1.373-3.482 4.225-2.973 6.261 0.3764 1.506 1.293 2.663 1.306 4.279-1.366 2.709-3.137 1.864-1.666 6.396 0.0463 0.1424 0.2237 0.3312 0.3092 0.4731 0.8429 1.999 6.124 5.768 6.36 7.635z"/>
	<path title="Biombo" d="m169.7 129.9c-0.8432 4.362-1.38 8.772-1.333 13.23l0.0211 0.0155c-3.526 0.34-7.604 0.1861-10.65 1.665-2.228 1.081-11 7.126-12.23 7.278l-0.6184-0.3329c-0.2425-1.328 1.506-8.435 2.188-9.799 0.3821-0.7642 1.88-3.965 1.95-4.662 0.1996-1.994-1.115-3.753 0.4285-5.613 2.935-1.898 3.878 0.683 5.422 1.284 1.16 1.371 3.628 1.819 5.09 0.6658l0.2854-0.7608-0.8563-0.2854c-0.7871 0.2826-2.014 0.548-2.806 0.1905-0.8066-0.3644-0.9868-1.286-1.427-1.903-0.8283-1.16-2.024-1.041-3.187-1.332-1.109-0.2774-2.117-0.9547-3.52 0.0475-2.572 1.837-0.937 5.176-2.046 7.564-1.132 2.438-2.941 3.77-4.234 5.898-0.818 1.347-0.167 3.024-0.9038 4.281-1.068 1.823-5.325 1.815-5.851-0.5234-0.6407-2.847 2.213-5.182 1.522-6.993-7.365-0.0252-2.03 6.235-3.71 8.42-0.9673 1.257-2.418 0.7334-3.758 0.9513-2.686 0.4365-4.116 5.389-6.802 4.186-0.3524-0.8112 0-2.241 0-3.155 0-1.273-0.4731-2.466-0.238-3.742 0.3226-1.75 2.249-6.272 3.14-7.896 0.4942-0.901 1.193-1.849 1.57-2.806 0.647-1.642 5e-3 -3.465 1.142-5.661 2.138-4.006 3.024-2.747 4.567-4.424 0.9862-1.072 1.033-2.634 1.76-3.805 0.7248-1.168 1.625-2.105 2.426-3.187 0.4759-0.643 0.6144-1.549 1.094-2.188 0.5549-0.7391 2.762-2.859 3.52-3.33 1.587-0.985 3.73-1.342 5.454-2.204 1.922-0.961 4.392-1.779 6.105 0.0629 0.3289 5.266 5.98 2.988 6.898 3.615 0.1304 0.4382 0.5572 1.042 0.9513 1.284 1.525-0.5692 1.232-2.52 1.808-3.71 0.4582-0.9473 1.344-0.8827 1.808-2.664l-0.4473-0.9138 6.79-3.311c0.8415 1.999 6.123 5.768 6.358 7.635l0.4954 3.917c-5.84 2.82-7.016 7.005-8.176 13.01z"/>
	<path title="Bissau" d="m169.7 129.9c1.16-6.003 2.336-10.19 8.176-13.01 0.0944 0.5326 0.516 1.086 0.8106 1.488 2.535 3.456 3.052 1.684 6.126 3.018 0.4124 0.5606 0.6241 2.043 0.6756 2.703 0.5749 1.007 4.159 0.5103 5.963 2.907-0.6754 0.1635-1.282 0.3883-1.798 0.8247-0.8254 0.6973-1.173 1.776-1.951 2.521-0.5452 0.5228-1.421 0.9965-1.903 1.522-1.018 1.11-1.817 2.719-2.997 3.71-2.364 1.986-2.742 1.665-5.28 2.854-1.567 0.7345-2.753 2.63-4.376 3.52-1.302 0.714-2.958 1.016-4.769 1.182-0.058-4.47 0.4791-8.879 1.322-13.24z"/>
	<path title="Tombali" d="m299.1 171-3.544 5.133c-1.107 2.461-3.806 15.22-5.133 17.05-0.7826 1.078-1.528 1.417-2.506 2.322-4.26 3.948-3.796 4.098-8.677 6.294l-0.3146 0.0955-8.118 2.471-4.95 2.2-6.233-2.2-3.116-4.216-5.317-2.383-6.6-2.383-8.612 7.591c-0.425 2.244-6.982 7.813-8.97 9.184-0.8049 0.5549-2.209 1.108-2.806 1.808-4.116 0.5486-3.169-0.3364-6.136-2.379-0.4914-0.1379-1.415-0.0297-1.808 0.3329-0.5492 0.8392-0.715 1.592-1.142 2.474-0.377 0.7785-0.929 1.325-1.427 1.998-0.3312 0.4473-0.4628 0.9891-0.7133 1.475-0.3684 0.7145-1.011 1.236-1.38 1.95-0.8008 1.551-2.246 5.156-1.808 6.803 0.4702 0.6979 1.714 0.7391 2.474 0.9038 1.51 2.404-0.5286 3.352-0.5709 5.043-0.0252 1.003 0.7282 1.717 0.5709 2.664-0.0938 0.5629-0.4576 1.088-0.5234 1.713-0.0915 0.8684 0.6481 4.723 1.142 5.518 1.621 2.613 4.134 1.033 5.613 2.188l1.332 2.093c0.3415 0.5497 0.3638 1.122 0.6184 1.665 0.5446 1.162 2.675 1.828 3.853 1.713 0.6046-0.0589 1.224-0.3203 1.855-0.381 2.394 0.8232 1.541 2.275 6.136 1.427 0.4731 0.2099 0.9725 0.5829 1.332 0.9513 0.8094 0.1127 2.127 0.1184 2.664-0.6184 2.266 0.7316 3.589 1.601 5.946 0.238 1.085-1.308 1.479-4.895 0.7608-6.374-0.3415-0.7048-1.043-1.399-1.379-2.093-0.7671-1.582-1.601-4.722-0.9513-6.422 0.2116-0.5543 1.101-1.396 1.522-1.855 1.114-0.3461 2.541-0.9044 3.615-0.143l0.0475 0.8563c-0.8123 1.011-1.74 1.144-2.664 1.903-0.814 2.898 1.029 6.11 2.759 8.277 0.1956 0.8129-0.0715 1.299-0.143 2.046-0.1304 1.372 0.6126 2.71 0.2854 4.091-0.3244 1.371-1.337 2.377-1.665 3.853 0.4982 0.9467 0.7065 2.637-0.4285 3.234 0.0721 1.729-2.005 3.136-3.568 3.235-2.399 0.1613-2.152 2.014-3.187 3.473-0.7923 0.401-1.669 0.5772-2.473 0.9513l-0.286 0.8089 0.1905 0.9988c0.6796 0.453 1.384 0.9444 2.188 1.142 1.43 2.08 0.9879 1.868 3.187 3.187 2.753 1.651 3.127-0.798 5.708-1.284 0.2506-0.8655 0.3381-1.813 0.7614-2.616 1.003-0.691 2.845-2.038 2.901-3.377 2.816-8.56 7.502-6.939 9.371-10.56 0.5108-0.9896 0.1304-1.845 0.3329-2.902l0.6658-0.238 0.8089 0.3329c0.4954-0.7288 0.381-1.733 1.047-2.331l0.4285-0.1905c0.365 0.397 0.7036 0.8335 0.9988 1.284 0.2952-0.012 3.347-0.8529 3.473-0.9513l0.4279-0.6658c-0.25-1.676-1.96-1.948-1.903-3.853 1.412 0.0481 3.269 0.5663 3.948-1.142l0.2854 0.8564 0.8089 0.286 0.9038-0.238c1.265-1.381 3.278-2.98 4.234-4.519 0.9942-1.602 0.4868-3.719 1.38-5.185l0.6658-0.0475c0.3284 0.4227 0.7002 0.8272 1.094 1.189 0.1705 1.432 0.7688 4.919 0.3804 6.184-0.7271 0.7557-1.716 1.341-2.568 1.951l-0.2854 0.7614c0.6556 1.493 3.593 1.769 2.854 4.519l-0.7133 0.5709-0.9513-0.1905c-0.5789-0.5303-1.169-1.05-1.713-1.617-0.695-0.1951-2.343 0.7843-2.902 1.237l-0.3329 0.8089c0.0847 0.9742 0.5268 1.92 0.3329 2.902l-0.6184 0.4754c-0.8804-2e-3 -1.693-0.4553-2.568-0.5709l-1.094 1.142c-0.5972 0.3581-0.917 0.0629-1.427 0.8563-0.9639 1.5 0.3186 3.042-1.522 5.043-1.063 1.156-2.348 0.6516-3.234 1.427-0.4153 0.8781-0.2889 8.251-0.5709 10.18-0.2185 1.492-1.508 2.687-1.332 4.186 0.548 1.043 1.802 1.269 2.806 1.665 5.667 2.232 5.045-3.266 7.658-4.709l0.143 0.8089c-0.5823 1.317-1.915 5.072-3.044 5.851-0.9833 0.6784-2.5 0.6573-3.615 0.9988-0.8512 0.6281-1.25 2.326-0.5709 3.187 0.4485 0.3049 1.127 0.5251 1.665 0.5709 1.021-0.2014 1.831-1.235 2.759-1.57 0.909-0.3284 2.015-0.131 2.949-0.5709 0.8609-0.405 1.435-1.392 2.188-1.76 0.2883-0.0223 2.25-1.523 2.426-1.76l0.1905-0.9038c0.3718 0.5829 1.108-0.6693 1.859-0.8838 0.7511-0.2145 2.574-1.287 3.754-1.287 0.5091 0 1.038-0.0595 1.527-0.1367l1.426-1.4 2.336-3.163 2.758-5.518 0.6807-1.105 0.8077-1.311 0.2494-0.4044 0.4628-0.8586 9.344-17.32 0.4062-0.7871 6.338-12.28 2.435-6.284 2.649-6.834 3.824-8.402 2.34-3.243 8.141-11.28 1.827-2.11 3.044-2.467 1.3-1.054 1.056-0.2734 2.8 4e-3 0.9427-0.2351 4.012 0.1396 6.025 0.7888 0.4576 0.2929 3.597 0.3295 3.637 0.3341 1.663-0.0938 4.021-2.283 1.772-0.5051 0.3752-0.2654 0.1825-0.5612 8.097-4.218-0.8746-2.499-0.631-0.3604-0.8558-1.351-2.027-2.387-0.901-1.396-0.1802-0.901 0.135-2.117 0.1911-0.3873-0.6996-0.0818-2.216 0.087-1.07-0.0921-0.1287-0.0257c-1.452-0.4588-0.973-0.2723-2.229-1.688l-0.4708-0.6556-0.7711-1.525-0.3455-0.3472-0.5051-0.091c-3.691 2.408-10.19 2.399-14.46 1.805-3.457-0.4811-2.663 0.7591-4.089 2.371-1.112 1.256-3.26 0.6435-4.135 0.2385l-0.1567-0.1047c-1.411-1.3-1.225-3.468-3.194-4.134-0.2494 0.0972-0.5497 0.3009-0.7219 0.4857 0.0503 0.8346 0.032 2.519-0.6824 3.124-0.5314 0.3289-1.091 0.5371-1.617 0.6561-0.9668 2.384-2.261 3.602-4.584 4.624-0.5955 0.262-1.077 0.1504-1.702 0.1642-1.658 0.0366-2.653-0.2837-3.505-1.66l-0.3335-0.5537c-1.29-2.123-2.812-2.523-4.755-3.818-4.882-3.255-4.579-2.938-3.55-7.86-0.9936-1.666-0.9404-4.504-3.83-3.492-0.2049 0.0713-0.5156 0.1008-0.7572 0.1002-2.169 3.763-4.569 7.506-7.07 11.13z"/>
</svg>
