REGIAO,CIRCULO ELEITORAL,INSCRITOS,VOTANTE,BRANCO,NULO,PROTESTO,VOTOS VALIDOS,MADEM G-15,PCD,PAIGC,MP,CD,APU-PDGB,PND,UM,UPG,PDD,PUN,CNA,PMP,FREPASNA,RGB-MB,MDG,PRID,PJRT-PFD,MGD,PSD,PRS,ABSTENÇÃO
TOMBALI,Círculo 01,16731,14534,498,357,0,13679,2494,111,3253,152,0,1874,78,50,0,0,0,0,41,299,268,0,102,0,93,201,4663,2197
TOMBALI,Círculo 02,22973,19831,740,737,0,18354,4001,0,4835,0,0,1632,435,345,0,0,0,0,0,783,147,0,151,290,0,0,5735,3142
QUINARA,Círculo 03,19077,16004,554,527,0,14923,4157,0,4617,217,231,837,87,36,0,0,0,0,0,460,52,0,94,562,0,228,3345,3073
QUINARA,Círculo 04,12843,11396,424,331,0,10641,1964,55,3073,0,0,572,57,27,0,0,0,0,0,532,311,0,89,346,142,0,3473,1447
OIO,Círculo 05,29882,26317,1118,891,0,24308,3874,0,5216,669,0,8168,295,331,0,0,0,0,169,604,0,168,0,0,0,0,4814,3565
OIO,Círculo 06,23281,19733,963,808,0,17962,3562,285,9003,0,0,1131,166,123,0,0,0,0,0,751,187,210,0,0,0,0,2544,3548
OIO,Círculo 07,21236,19281,524,667,0,18090,7505,326,4892,160,0,649,40,49,123,0,0,0,0,581,114,419,0,327,0,0,2905,1955
OIO,Círculo 08,34780,31827,1367,1093,0,29367,3207,711,6602,0,0,4067,0,170,2223,0,0,0,0,740,695,0,0,0,0,0,10952,2953
BIOMBO,Círculo 09,17369,14413,532,463,0,13418,3643,161,4676,417,187,2027,101,63,0,0,0,0,0,251,195,74,0,0,0,0,1623,2956
BIOMBO,Círculo 10,33121,29053,566,637,0,27850,3687,289,13212,770,0,4582,319,0,110,0,0,0,75,272,396,0,0,0,0,190,3948,4068
BOLAMABIJAGOS,Círculo 11,17267,13730,378,515,0,12837,1977,119,6795,185,114,230,58,82,120,0,0,0,0,139,92,0,0,0,67,123,2736,3537
BAFATA,Círculo 12,41289,35007,1566,1088,0,32353,8315,712,7471,0,386,2347,1077,3134,846,0,0,0,0,579,870,244,0,0,418,390,5564,6282
BAFATA,Círculo 13,28102,23895,1062,783,0,22050,5500,313,4958,0,0,2018,460,135,0,0,677,878,0,581,235,0,0,257,0,1189,4849,4207
BAFATA,Círculo 14,31570,27380,1739,1147,0,24494,8188,542,4461,0,552,1005,576,391,347,640,0,0,63,1006,186,289,0,367,1076,0,4805,4190
GABU,Círculo 15,27540,23168,797,685,0,21686,4902,788,4872,0,0,636,3327,208,0,147,0,678,0,458,0,0,197,0,352,0,5121,4372
GABU,Círculo 16,39334,31912,1352,1052,0,29508,7630,753,7414,0,0,1524,697,251,134,0,0,2438,0,393,201,221,363,0,375,0,7114,7422
GABU,Círculo 17,13980,11982,500,311,0,11171,2344,1537,1743,0,0,475,294,101,0,0,0,468,0,896,0,110,144,0,513,185,2361,1998
GABU,Círculo 18,16560,14257,652,571,0,13034,3748,308,1877,0,98,464,144,68,0,0,0,1256,0,1122,997,108,112,0,250,237,2245,2303
CACHEU,Círculo 19,39311,33602,1679,1263,0,30660,4602,350,8926,0,0,5079,227,1867,0,0,0,0,0,966,290,397,499,700,506,0,6251,5709
CACHEU,Círculo 20,26728,21286,1247,1012,0,19027,4973,238,4699,756,141,1702,0,609,162,0,0,0,240,322,645,115,459,0,0,0,3966,5442
CACHEU,Círculo 21,24053,20127,966,1634,0,17527,2549,1025,3660,159,700,1156,73,137,0,0,0,0,167,504,250,0,87,0,156,0,6904,3926
AFRICA,Círculo 22,10510,5267,166,296,0,4805,929,85,2619,0,0,0,28,0,0,33,0,0,0,81,56,0,0,0,0,0,974,5243
EUROPA,Círculo 23,6480,4752,64,269,0,4419,618,99,2800,0,0,0,0,0,0,0,0,0,0,16,20,0,0,0,178,0,688,1728
BISSAU,Círculo 24,18826,16295,177,384,0,15734,3150,228,9648,201,0,319,37,68,0,0,21,0,0,114,40,48,0,0,0,0,1860,2531
BISSAU,Círculo 25,42002,36627,509,806,0,35312,4109,176,16120,626,0,3301,137,75,0,0,63,0,0,600,139,72,117,0,115,0,9662,5375
BISSAU,Círculo 26,25954,21477,291,473,0,20713,2709,141,13449,423,35,432,26,16,136,0,20,0,0,132,78,47,80,0,83,0,2906,4477
BISSAU,Círculo 27,26368,22698,253,455,0,21990,4206,119,12678,302,0,1072,49,55,45,41,33,0,0,141,81,49,30,0,0,111,2978,3670
BISSAU,Círculo 28,37887,31912,472,657,0,30783,7166,146,16936,212,0,776,70,56,38,0,67,287,0,194,218,73,98,0,71,0,4375,5975
BISSAU,Círculo 29,56622,47322,721,915,0,45686,11226,247,21643,507,0,2974,161,88,123,0,77,0,0,409,196,145,0,0,147,0,7743,9300
,,761676,645085,21877,20827,0,602381,126935,9864,212148,5756,2444,51049,9019,8535,4407,861,958,6005,755,13926,6959,2789,2622,2849,4542,2854,127104,116591
