Province,PREN,PAC,PLN,PUSC,PIN,PRSC,ML,FA,PNG,ADC,PRC,PASE,PT,Juntas Procesadas,Juntas faltantes,Votos recibidos,Votos válidos,Nulos y blancos,% Participación,% Abstencionismo
Alajuela,113234,92385,76848,64459,37462,23023,3847,3177,3039,1313,2058,1381,888,1266,0,428247,423114,5133,67.87,32.13
Cartago,41211,72528,55345,41337,29839,17464,2814,2097,2361,5920,1955,1061,527,740,0,278545,274459,4086,71.81,28.19
Guanacaste,35733,21089,32937,22108,15653,7266,1346,942,691,438,822,528,255,565,0,14283,139808,3022,59.35,40.65
Heredia,50033,64449,41780,42705,19075,8792,2410,1896,2207,682,1236,580,401,613,0,238377,236246,2131,71.62,28.38
Limón,64710,16050,26684,14041,15810,6978,1963,1434,657,1003,1215,989,453,550,0,155574,151987,3587,57.06,42.94
Puntarenas,60096,20330,31280,23067,19462,8202,1805,1347,947,607,954,655,324,716,0,172338,169076,3262,55.47,44.53
San José,172975,177643,135883,135880,68058,34676,7674,5889,6395,2659,4048,2339,1497,2092,0,762422,755616,6806,68.39,31.61
Abroad,512,1655,748,998,243,43,31,80,32,16,21,6,6,70,0,4431,4391,40,13.91,86.09
Total,538504,466129,401505,344595,205602,106444,21890,16862,16329,12638,12309,7539,4351,6612,0,2054217,2154697,28067,65.7,34.3
Source,http://resultados2018.tse.go.cr/resultadosdefinitivos/#/presidenciales,,,,,,,,,,,,,,,,,,,
Wikipedia,https://en.wikipedia.org/wiki/2018_Costa_Rican_general_election,,,,,,,,,,,,,,,,,,,
