<svg version="1.1" viewBox="0 0 500 517">
  <path d="m230.7 105.9c-2.992 5.322-4.429 13.6-11.37 14.33-5.757 3.827-1.173 2.363 2.248 1.781 5.757 1.213 10.87 6.382 15.19 9.452 4.13 4.663 13.1 1.622 14.07 8.948-3.85 6.738 2.582 9.088 5.966 12.93 6.469-1.881 5.299 2.843 7.979 6.45-1.051 3.853 2.429 5.723-0.4921 11.92 4.512 1.735-0.497 11.74 5.439 8.612 5.383-3.549 12.21 2.711 18.02-1.272 7.858-1.627 13.1 5.22 21.26 3.653 3.316 2.373 9.293-3.18 13.09 1.315 5.038 1.307 9.743-2.695 14.79 0.5216 2.019 5.341 8.797 7.491 10.27 14.2 4.292 4.557 7.733 14.63 14.51 14.88 6.938 1.426 7.722-5.156 10.01-8.286-1.147-5.084 0.9603-10.7 4.046-14.62 1.617-4.698 4.573-9.16 2.205-13.94-3.389-5.11 2.703-11.59 0.5284-16.56-3.09-2.928-3.093-10.86-9.69-10.92-2.801-6.866-10.96-1.885-15.85-6.764-7.003 0.4698-11.72 2.44-14.3-3.982-0.5962-3.785-7.457 2.317-5.564-3.944-3.223-1.631-3.21-6.711-7.15-8.892-3.439-0.0772-2.696 9.221-7.692 5.333-5.28-1.39-7.283-7.502-13.7-6.049 1.163-5.042-6.443-6.957-2.907-9.039-1.552-4.947-6.155-1.956-7.052-5.383 4.796-2.474-3.049-5.284-0.7101-8.036-1.999-4.38-6.284-0.7919-8.078-5.103 3.887-5.023-6.503-3.506-4.811-7.711-2.728-1.541-7.324-3.364-7.461-8.059-2.969-0.983-7.15-0.3376-9.153 1.918 2.111 3.937 1.172 6.904-1.204 9.369-2.378-1.678-5.882-1.321-5.368 2.233-4.754 2.358-5.496 3.971-10.28 6.779-3.75 3.35-7.022 4.788-12.14 3.553-1.978-1.034-2.78 1.689-4.645 0.3861z" title="Rivera"/>
  <path d="m78.7 19.75c-3.411-5.655-3.529-9.558 4.361-4.997-2.081 3.423 2.518 11.32 7.124 6.431 5.818-2.293 6.446 3.707 9.524 2.706 1.758-5.375 4.149 0.9622 6.931-3.838 2.043 7.022 5.568-2.673 6.545 3.23 6.461-0.7037 8.453-6.06 8.585-11.21 4.838-5.879 3.356-6.87 8.502-10.24 3.914 1.932 12.11-1.831 14.96 2.761 1.967-6.015 13.27-1.189 11.93 4.277 3.678 2.142 12.85 4.376 11.46 7.166 3.098 1.962 5.572 4.618 4.137 8.259 7.067-3.122 6.056 4.099 8.612 6.053 2.354 5.341 7.275 0.6628 7.476 6.072 5.315 0.9369 4.149 9.702 9.933 8.899 3.073 3.381 8.441 3.906 7.801 7.839 2.483-0.4913 5.67 2.519 8.365 4.667 1.335 2.607 2.113 7.253 4.584 9.471 0.6151 5.632 6.261 2.406 9.145 7.427 1.476 2.029 5.916 7.359 2.187 11.42 1.426 6.851-2.211 12.27 0.0751 18.82-3.069-2.213-11.09-7.063-12.78-11.48-3.399-4.822-11.7-2.943-16.87-5.121-4.603-2.597-12.8-6.075-12.95 1.932-6.484 3.838-12.25 7.801-19.88 8.131-9.081 9.611-21.89-1.072-32.37 3.884-6.06 2.071-10.94 1.595-16.38-3.069-2.884-5.981-9.41-4.747-13.26-9.247-8.687 0.6272-13.48-12.18-22.76-7.555-5.598-0.9925-8.153-8.437-14.25-10.47-1.971-3.482-9.058-4.092-6.673 0.6424-3.393-1.756-0.7226-11.36-4.766-12.36 2.103-4.599-2.655-6.749-3.631-10.62-2.035-3.834 1.734-8.612 5.799-6.227-2.285-1.913 5.235-7.374 9.467-9.001 6.533-3.406 6.564-8.54 9.07-14.65z" title="Artigas"/>
  <path d="m230.7 105.9c-4.221-5.704-12.13-7.472-13.39-14.02-6.181-1.878-12.31-2.092-18.46-3.997-5.526-5.837-10.05-0.7877-12.26 3.763-5.985 3.432-11.14 6.636-18.11 6.969-9.081 9.611-21.89-1.072-32.37 3.884-6.06 2.071-10.94 1.595-16.38-3.069-2.884-5.981-9.41-4.747-13.26-9.251-8.687 0.6272-13.48-12.18-22.76-7.555-5.598-0.9925-8.153-8.437-14.25-10.47-5.129-0.9611-6.723 2.335-7.983 5.526 1.504 3.041 0.2778 4.44-0.09758 7.574 6.181-1.257 0.333 3.016 1.522 3.808 2.424 0.776 3.716 1.156 6.541 2.421-2.904 3.437 0.8498 8.316-3.359 2.213-3.499-2.183-5.174-2.588-9.278-1.902-3.42-2.827-5.038 4.648-0.8558 1.326 4.758 0.6522-3.054 2.751 1.077 4.126-1.337 1.458-2.281 4.645 0.06878 6.196-1.388 1.624 0.3418 2.735 0.01401 4.364 1.229 1.581-2.827 1.924-3.247 0.6325-1.334 1.896-3.374 2.22-1.53 5.424-1.827 5.89 2.765-0.4629 4.694 1.988-0.4088 2.35 9.565 0.1219 3.258 2.927-9.35-2.492 7.82 7.321 0.4141 5.742-4.224 0.5345-5.496-5.057-7.343-3.975-0.2134 5.148-6.848 5.807-9.194 10.41-0.6352 6.102-0.07938 10.26-7.605 12.78-6.231 1.676 0.4205 9.459 3.408 4.906 4.815-0.3062 8.96 4.626 6.151-2.558 3.391 1.075 6.128-2.206 8.415 0.2733 5.701 1.405 8.918 2.263 10.23 7.73 2.105 5.833 10.08 2.586 14.97 5.371 7.192 2.269 13.03 8.566 21.2 8.199 3.391 4.463 8.509 7.994 14.68 9.41 6.692 3.501 13.57 3.455 20.93 2.543 4.739 3.104 10.22 2.704 15.23-0.1056 5.436 0.3112 9.88 2.217 14.23 4.997 5.386 1.706 10.34 0.4853 15.23 3.416 6.923 2.95 8.831-1.37 12.93-6.06-1.213-6.738 11.63-3.918 7.487-11.22-2.144-2.865-5.879-10.21-2.822-13.9 3.353-2.798 1.396-9.868 7.483-11.32-0.298-3.376 6.518-3.808 7.325-8.589 0.3574-3.44 4.289-7.688 2.06-11.11-2.889-3.52 4.834-6.537 8.036-6.639 2.14-4.33 5.519-8.517 6.988-13.19z" title="Salto"/>
  <path d="m38.16 150.1c1.692-5.296 10.7 3.225 8.335-1.249-2.11-4.281 3.895-1.961 6.208-3.982 1.003 4.096 11.06 0.4732 10.14 6.329 1.979 5.031 7.094 7.033 13.43 7.355 8.979 0.9509 15.18 9.456 24.65 9.001 3.391 4.463 8.509 7.994 14.68 9.41 6.692 3.501 13.57 3.454 20.93 2.543 4.739 3.104 10.22 2.704 15.23-0.1056 5.436 0.3112 9.88 2.217 14.23 4.997 5.386 1.706 10.34 0.4853 15.23 3.416 6.923 2.95 8.831-1.37 12.93-6.06-0.3541-4.788 8.229-8.528 11.7-5.447 1.718 3.554-2.345 9.558 2.204 11.35 2.574 5.277-4.573 8.01-4.607 13.65 1.119 5.156-1.866 9.081 0.0829 12.53-0.4599 5.39-4.769 7.063-5.606 11.81-2.848 3.6-6.965 7.593-11.16 9.414-1.665 4.05-6.795 8.759-6.764 14.99-0.2538 6.821-8.687 1.195-10.58-2.374-1.879-6.121-9.172-3.232-13.76-2.846-5.201-3.044-11.86 1.232-15.72-4.981-3.407-0.5682-8.687-2.097-11.13 2.205-4.633-1.585-10.94-0.9743-12.61 3.493-3.91 4.917-6.511 3.124-10.49 0.7412-3.526-0.7926-7.563 2.222-10.56 0.6628-5.031-2.8-4.171 4.436-8.706 4.493-1.055 5.08-5.084 4.55-8.354 7.124-2.666-0.2347-5.795 1.063-8.861 1.059-5.64-2.698-4.728 9.051-9.721 3.365-3.751-1.47-6.609 1.419-11.27 0.6885-6.193 0.6931-7.241-5.046-11.64-8.384-1.433-4.205-4.705-4.115-7.355-2.974-2.678-2.189-8.093 4.856-6.246-3.777 2.475-5.163 7.063-8.54 9.581-13.61 1.47-8.827-5.996-15.12-6.072-23.68 3.925-5.405 1.103-12.25-1.601-17.37-6.299-6.889 7.101-9.16 10.63-10.72 1.729-8.608 8.135-16.63 7.915-25.94-2.246-2.312-1.864-5.985-5.326-7.128z" title="Paysandú"/>
  <path d="m2.95 351.9c5.417 4.985-6.954 11.11-1.551 17.86 1.159 7.097-2.476 12.15 0.193 18.71-1.083 4.751-1.321 12.72 5.769 10.92 5.095-0.2994 8.093-5.773 14.52-5.776 5.882-4.111 11.48-1.595 15.79 0.9418 2.717 2.046 5.701 11.74 10.55 5.848 6.227-0.3448 11.93 2.886 15.41 6.477 4.535-0.9122 10.14 3.44 15.74 2.619 5.969-3.918 13.27-3.108 18.61-7.033 6.673-3.257 9.69 9.808 16.98 3.705 4.122 3.865 17.93 7.533 10.3-2.295 2.332-6.454-3.986-10.38-6.749-14.32-4.141-6.272 5.148-11.73 1.968-17.82-3.546-0.424-7.661-4.716-7.767-8.888-3.738-2.977-2.413-9.792-8.388-12.68-4.592-3.505 3.241-5.534 3.439-8.986-1.266-4.61 6.302-5.443 6.39-9.338 3.411 1.679 1.356-4.425 5.746-4.035-0.9111-2.967 5.723-8.479-0.1308-7.215-2.99 4.202-6.106 1.888-9.486 0.3808-3.483-4.198-10.59-7.741-14.19-2.816-1.953-5.451-5.114-8.241-10.8-9.391-2.86 3.424-8.941 2.802-8.717 7.866-4.436 0.8195-8.918-5.163-13.01-3.093-3.336 2.725-9.645-7.548-10.72-0.3577-7.086 0.5655-7.775 3.521-6.995 9.24-2.773 2.303-9.838-5.349-9.486 1.014 1.945 4.149 7.003 14.19-1.558 9.592-9.948-4.561-1.666 6.753-7.241 8.612-5.084-2.982-12.54-1.12-12.82 5.386-2.431 3.435-12.87 1.189-11.82 4.883z" title="Soriano"/>
  <path d="m23.54 253.9c2.006-3.099 5.19-0.6518 7.275-2.509 3.636-0.2722 5.973 3.823 8.687 7.29 2.143 4.19 9.319 6.923 12.77 4.626 4.788-1.56 5.674 0.1802 10.15 1.483 2.45-3.296 3.993-6.276 9.213-4.815 2.931-2.473 6.477 0.0961 9.41-2.418 3.197-1.406 4.217-5.231 7.926-6.813 1.391-2.505 3.688-6.45 7.283-2.968 3.256-0.9823 7.207-1.411 10.97-1.307 2.716 5.383 6.73 1.033 9.997-1.327 0.9535-6.215 9.52-1.966 12.4-4.118 2.975-2.849 7.184-1.564 10.35-1.053 3.861 6.212 10.51 1.935 15.72 4.981 4.588-0.3865 11.88-3.275 13.76 2.846 1.656 5.481 9.13 3.38 10.19 8.434-0.9906 5.489-5.969 10.24-4.251 16.05-5.863 0.9781-4.993 5.822-4.334 10.52 0.0736 2.683-8.203 4.028-5.246 7.536-0.4777 2.727-3.937 0.1268-6.579 2.361-1.362-3.554-5.402 0.1045-3.47 1.406 0.6613 1.214-6.488 0.8979-2.017 4.194 1.037 3.163-4.739-1.112-6.461 2.674-0.9823 3.148 4.55 3.846-1.267 4.739-0.6272-2.741-4.97-5.913-5.341-0.9664 5.345 2.861-1.844 0.0394-3.775 0.8975 1.403 1.034 6.147 5.205 1.654 5.848-4.573-0.3619-10.51-6.193-14.34-2.242 3.295 1.291-2.717 2.546-4.376 3.527-5.848 3.264 3.686 2.178 4.539 4.486 1.622 5.341-5.947 2.221-8.036 6.038-4.137-0.2744-7.93-4.478-12.41-6.972-5.349-2.786-9.641 6.234-10.47-3.527-2.47-2.731-7.642-4.925-10.8-1.815-6.393-0.7786-4.315 9.978-10.67 4.115-4.955-3.147-9.164 0.1048-13.24-2.831-5.413-4.739-5.356 3.356-11.45 2.469-3.775 1.63 1.873 11.5-5.958 7.188-5.958-3.776-5.564 3.039-2.761 6.643 5.023 8.922-3.99 3.573-8.827 3.937 0.2087 4.69 0.676 12.54-7.597 7.544-7.4-0.6514-5.568 10.19-13.03 9.028-5.455 1.949-9.024 2.514-6.473-3.112 5.833-1.072 6.227-6.696 4.8-11 1.029-4.962-2.687-10.62 2.65-14.08 4.527-0.8555 7.953 0.1772 13.4-0.8434 4.149 0.6257 8.975-5.905 10.87-8.805-0.5901-4.732 7.033-11.87-0.0079-16.14-2.077-4.433-8.085-9.024-5.14-15-2.616-5.322-0.55-9.577-2.802-14.8 1.444-4.94-3.757-6.378-2.865-11.41z" title="Río Negro"/>
  <path d="m3.063 399.1c6.155 0.2559 9.989-1.412 14.51-5.296 6.708 1.591 13.64-8.384 18.05 0.8138 4.463-1.764 4.887 7.324 9.895 7.518 5.36-4.255 13.02-0.4065 17.14 3.662 2.982-0.0378 8.71 3.208 13.62 2.968 6.348-0.5053 14.39-2.865 19.98-5.973 7.321-5.492 9.618 7.521 17.21 3.99 2.92 0.5814 15.63 2.696 13.3 5.89-1.454 6.374 8.456 6.81 9.384 13.52 4.274 4.187-3.126 6.984-5.436 9.285-5.398 0.6079-7.253 10.17-2.625 12.58-1.603 3.114-1.906 5.667-2.241 10.52-2.304 4.739-7.188 3.586-12.43 2.989-5.969 0.8725-9.24 0.2574-14.22-1.022-3.891 3.302-8.54-2.502-11.92 2.143-4.277-0.4232-8.926-4.8-13.48-0.2048-3.383 2.206-7.434 0.1079-9.751 2.443-1.031-0.3509-9.172 2.188-7.809-1.178-6.59-1.761-2.574-9.217-7.847-12.87-2.614-5.526-9.304-9.615-12.68-12.5-0.4289-7.423-11.05-4.978-15.31-7.442 3.604-6.772-5.159-10.86-6.995-15.35-2.882-6.064-12.71-6.382-11.99-14.2 0.9925-0.4111 1.348-1.331 1.637-2.28z" title="Colonia"/>
  <path d="m188.7 404.4c-4.33-2.898-11.42-7.889-15.49-5.928-4.149 7.711-15.59 6.102-20.39 14.36-8.036 1.164-18.34-2.993-25.08-0.7934-4.266 3.623 2.794 6.787 5.099 8.994 3.918 4.16 6.461 9.372 1.339 12.11-4.02 2.655-9.853 4.603-8.642 11.3 2.799 3.117 1.987 6.155 0.5803 9.278 2.734 4.728-7.135 8.396-1.886 9.581 6.159 3.102 5.95 9.917 12.9 12.01 5.466 3.2 7.73 10.07 13.68 11.1 5.837 4.856 15.99 2.253 22.86 7.374 5.315 5.629 13.48-1.829 19.09 3.75 6.976 5.368 8.574-6.863 1.086-7.684-7.824-0.1427-7.502-8.286-9.009-12.98 3.891-4.115 6.84-3.577 9.501-7.813-6.034-2.111 2.617-7.839-1.558-9.119-2.695-4.187-7.798-7.688-1.411-9.838-1.415-3.716 3.099-10.12-1.006-12.14-5.614-5.799 7.798-12.51 1.678-17.35 2.627-9.009-4.592-9.202-3.334-16.22z" title="San José"/>
  <path d="m196.1 499c5.375 0.4773-0.2073-12.34 7.457-7.783 2.233 5.19 7.979 8.43 9.456 1.039 4.796 0.3331 7.764-0.6049 9.512 5.137 7.192-1.876 5.602 2.333 4.168 9.475 4.887 4.179-3.534 3.865-7.536 5.046-1.041 3.679-8.116 0.7582-6.59-0.4054 1.144-6.522-5.644 0.0492-8.35-1.064-3.971 0.4804-6.666-4.27-10.9-5.856-5.754-0.5288 2.463-3.655 2.783-5.587z" title="Montevideo"/>
  <path d="m228.9 509.2c-6.832-1.512 3.712-11.93-2.379-12.5-5.322 6.261-5.125-9.013-10.08-3.417-4.754-4.542-4.274 7.495-9.565 2.816-1.676-8.664-7.362-3.194-10.71-5.549-8.112 0.0152-9.705-6.859-11.38-12.21 2.256-5.031 6.374-4.955 9.247-8.328-2.555-2.618-0.935-6.776 0.1078-9.705 1.092-3.547 0.6185-7.071 5.716-7.502 4.724 0.5508 8.914 2.305 13.63 3.229 3.952-1.123 4.872-7.306 7.794-10.56 5.523-3.016 9.55-4.785 15.58-0.5875 5.19-0.9115 10.25 1.446 14.18-4.005 4.883-3.141 12.51-4.247 16.78-2.081 2.15 7.029 4.277 13.9 8.267 19.32 0.1992 3.1-0.334 6.215-1.857 8.377 2.787 4.152 7.082 7.124 6.522 12.94-0.9319 3.024 3.164 7.839 3.956 11.66-3.266 4.716 11.59 9.111-0.4633 9.334-6.995 2.463-12.98-4.561-19.13-1.896-2.509-5.341-8.721 2.635-12-0.7733-8.536 1.405-16.17 6.378-23.31 11.32z" title="Canelones"/>
  <path d="m267.3 437.3c-7.521 0.3161-14.4 0.7639-20.05 6.189-4.19 2.068-9.944 1.38-14.47-0.4236-4.69-3.114-11.62 1.507-13.46 6.022-2.615 3.611-5.296 10.36-10.49 5.212-4.716 0.4762-7.695-3.439-12.53-0.299-2.32 0.7207-0.7294 9.785-4.671 4.115-5.307-4.274-2.907-6.064 0.2891-9.645-2.255-4.489 3.026-9.376-2.281-12.06-3.219-5.504 8.343-11.41 2.451-15.86 2.669-8.063-4.804-9.861-3.252-16.51 3.506-1.21 7.207-6.734 1.748-9.41 1.717-7.196-1.698-5.227-3.517-11.09-1.53-5.981-3.816-12.31-5.526-17.81 2.156-3.318-2.93-8.244 3.621-4.592 4.41 2.33 8.661-1.3 6.162-6.942-2.727-7.211 2.999-3.937 5.015-0.3278 4.516 1.371 11.54-0.7132 12.22 5.356 3.249 1.657 5.784-4.417 9.861 0.4236 8.426 3.316 7.139-4.667 12.75-6.083 5.458-3.827 9.906 1.331 15.5-0.4921 5.318 0.2407 9.607-8.157 13.15-6.67 5.682 4.232 8.131-3.355 13.06-4.372 3.648-4.856 11.22-1.644 13.83-6.935 5.118-1.602 8.536-6.696 14.63-6.348 4.959 1.112 6.034-7.889 9.978-9.236 5.606-2.257 2.53 6.583 4.016 8.827-3.69 3.322 6.215 9.21-0.4372 12.19-0.4368 3.247-2.688 5.231-2.916 10.39 5.659 3.694-0.1763 5.644 1.577 9.834 0.4009 4.735-8.437-2.42-7.79 4.947 0.991 8.01-8.767 3.462-10.81 9.395-3.087 1.334-1.044 8.475 2.629 8.562-1.599 3.123 2.492 9.528-2.281 12.41-2.481 4.872-4.656 9.724-7.465 13.8-3.026 3.816-2.722 12.06-8.574 10.55-4.486 2.25-3.348 8.403-7.574 11.08-1.96 1.705-2.353 4.228-4.38 5.807z" title="Florida"/>
  <path d="m166.4 286.8c-2.476 3.637 0.9308 6.038-4.554 4.141-0.6586 4.97-5.879-3.214-6.31 1.753 0.7605 2.689-0.7097 1.062-3.079 3.078 3.933 6.352-1.27 0.9085-3.671 4.334-5.307 0.952 2.881 4.648-1.036 4.679-2.898 2.903-4.595-7.12-6.916-1.147 3.228 2.953 0.7923 2.534-2.94 1.326-3.686 1.913 5.462 2.329 1.915 5.916-3.221 1.316-8.301-3.132-12.46-3.286-5.648 0.1174 0.4807 3.231-4.486 3.227-1.41 1.755-8.384 3.156-2.767 4.875 4.985-0.7972 5.822 4.319 6.923 7.654 1.726 6.136 9.599 1.373 10.01 3.565 4.311 1.396 11.05-0.1431 11.98 4.569 0.8437 3.767 4.005 6.083 7.037 5.421 4.595 0.4247 10.03 0.204 12.6 5.152 1.473 4.61 6.745 7.938 8.54 12.09-0.1881 6.227 3.793 5.602 7.972 7.105 4.41 2.33 8.661-1.3 6.162-6.942-2.727-7.211 2.999-3.937 5.015-0.3278 4.516 1.371 11.54-0.7132 12.22 5.356 3.249 1.657 5.784-4.417 9.861 0.4236 8.426 3.315 7.139-4.667 12.75-6.083 5.458-3.827 9.906 1.331 15.5-0.4921 5.318 0.2408 9.607-8.157 13.15-6.67 5.682 4.232 8.131-3.355 13.06-4.372 3.648-4.857 11.22-1.644 13.83-6.935 5.118-1.602 8.536-6.696 14.63-6.348 4.959 1.112 6.034-7.889 9.978-9.236 4.482-1.648 10.36-3.54 13.11-6.916 6.045-4.898-5.356-5.939-7.15-2.048-4.663-0.1283-9.312 1.321-10.55-4.838-2.557-3.579-7.828-3.429-8.774-7.817-3.341-2.986-0.1095-8.744-2.515-11.45-5.159-3.903 4.368-5.428 0.7654-10.82-1.27-4.179-0.4523-9.592 2.979-13.83-2.049-5.167-1.318-9.395-7.105-9.876-6.242 2.808-4.296-5.265-8.827-5.867-4.879 1.942-2.212 6.162-1.913 9.183-5.349 0.2699-9.539-0.1934-14.71-1.639-3.49 1.987-6.564 9.107-7.188 1.845-0.7764-0.455-10.39-0.0405-4.629 1.159 2.058 2.68-4.41 5.485-2.879 6.261 4.478 3.793-4.455 1.13-1.814 4.701-3.85 5.981-9.721-7.029-12.68 1.103-3.986 6.98-12.47 7.113-19.43 5.95-8.479-1.334-1.675 6.363-7.215 8.036-0.8195 9.225-13.98 4.168-18.92 7.627 0.354 7.071-2.499 0.8222-3.212-1.886-2.886 1.177-3.434-1.335-6.355 0.9728-1.648-3.058-6.821 5.436-3.975-0.5844-2.287-3.516-5.402 2.153-7.287 4.232-5.894 1.71 1.289-5.742-3.846-5.742z" title="Durazno"/>
  <path d="m127.4 410c-1.709-5.761-1.08-12.5-5.439-17.67-6-1.733-4.959-10.08-1.64-14.34 2.829-6.514-3.007-6.48-5.697-11.38-1.999-4.081-4.857-7.321-5.413-11.9-1.696-4.951-9.406-5.333-4.698-10.86 5.015-0.5632 2.102-7.396 7.131-9.471 1.801-2.152 4.671-2.324 4.368-4.099 2.521-2.675 5.015-3.421 5.084-7.442 1.872-5.068 6.813-3.133 6.745 1.295 4.164 6.045 8.324-1.246 11.02 3.45 6.196-1.21 9.081 1.271 12.02 5.133-3.223 3.724 5.133 4.652 5.398 3.553 5.428 0.8895 9.607 1.457 13.31 5.602-0.0348 6.552 7.54 7.389 7.832 13.14-1.042 4.622 7.828 6.034 4.156 10.59 2.401 6.882 4.58 14.83 6.802 22.26 6.484-1.684-1.888 8.229 5.371 9.433-0.4425 3.637-4.16 9.213-7.461 5.099-4.769-1.657-12.19-9.115-14.74-1.463-4.448 3.986-12.2 4.546-17.08 9.444-4.486 5.651-14.14 0.2737-20.62 0.9331-2.018-0.7673-5.034 0.5398-6.439-1.315z" title="Flores"/>
  <path d="m297.2 253.9c-4.47-2.258-8.229 0.1457-11.34-3.771 2.896-6.613-8.941-2.792-4.974 1.23 1.966 5.262-2.203 4.134-6.889 4.372-3.525-1.675-12.06-3.111-11.48 3.622-5.05-0.8804-1.901-5.508-7.01-3.689-5.988 0.1382 2.602 1.511-1.39 6.178-6.537-0.38 1.065 1.861-1.904 4.361-3.1-2.275-4.077 7.949-8.638 1.175-6.056-4.516-7.071 6.511-12.85 7.298-5.576 3.038-15.28-3.099-18.18 3.334 2.089 3.789-2.703 8.32-6.041 10.22-3.823 2.624-15.56-1.901-14.1 4.512-3.903 4.966-1.167-5.031-4.565-3.704-2.752-1.304-3.221 0.9698-6.628 0.0341-1.441 0.3698-5.72 4.747-2.919-0.8119-3.948-1.332-5.14 3.307-7.885 5.701-4.361-1.772 1.088-6.019-3.653-7.359 4.535-1.552 5.504-6.147 3.23-10.38 4.084-3.627 6.159-4.323 5.523-10.49 2.078-3.557 4.91-8.108 3.587-12.42 2.278-4.997 1.342-13.84 7.563-15.57-0.1656-4.751 6.499-5.254 8.945-9.138 3.952-2.64 2.701-8.418 6.901-10.27 3.445-6.019-2.407-7.642 1.653-13.15-1.792-5.394 1.582-10.44 4.902-14.31-1.39-3.956-5.156-6.526-2.537-11.44 0.1416-5.144-5.928-3.772-5.152-9.425-1.729-2.349-6.67-11.05-1.759-13.45 1.323-4.595 2.114-9.849 7.567-11.62-0.7658-3.111 6.249-4.811 7.567-8.793-2.425-4.626 5.436-7.919-0.1412-11.64 0.4584-2.716 3.914-0.9422 6.144-2.694 6.227 1.002 11.42 6.45 15.99 9.652 4.13 4.663 13.1 1.622 14.07 8.948-3.85 6.738 2.582 9.088 5.966 12.93 6.469-1.881 5.299 2.844 7.979 6.45-1.051 3.853 2.429 5.723-0.4925 11.92 4.512 1.735-0.497 11.74 5.439 8.612 5.383-3.549 12.21 2.712 18.02-1.273 7.858-1.627 13.1 5.22 21.26 3.653 3.316 2.373 9.293-3.18 13.09 1.315 5.038 1.307 9.743-2.695 14.79 0.5216 2.019 5.341 8.797 7.491 10.27 14.2 2.522 5.386 10.05 10.9 11.24 15.85-2.47 1.193-7.631-5.515-8.362-0.1915 0.7669 3.982-4.073 3.647-5.057 6.885 1.442 4.031 1.387 4.887-0.2462 9.403-3.233 1.656-1.476 7.196-6.306 6.878-2.382 5.553-6.647 5.379-9.664 10.28-3.061 3.35-6.117 7.495-11.02 5.296-5.689 0.2468-6.079-1.897-10.86-2.744-3.322 0.9058-5.299 2.462-9.656 3.518z" title="Tacuarembó"/>
  <path d="m378.9 166c-3.914 5.125-1.657 10.02 0.232 15.69-1.514 5.14-4.887 8.097-5.935 13.48-2.527 5.19-2.405 9.282-2.705 14.4-3.884 4.338-9.024 3.689-14.18 5.031-0.988-2.577-8.017-3.975-6.151 0.3539-0.254 3.872-6.776 3.183-4.758 7.624 1.377 2.652 0.2403 5.439-1.913 8.335-1.427 3.25-1.52 6.56-6.14 6.666-1.415 6.295-6.333 5.22-9.316 10.24-2.712 4.531-6.514 6.533-11.67 5.103-4.989-0.6988-5.311-1.786-10.21-3.015-2.175 2.895-8.858 1.127-9.077 5.848 3.464 5.788-1.16 9.736-1.822 15.84 0.4482 2.857 1.518 7.294 0.7563 10.31-6.514 1.333 2.203 6.473 0.6287 10.8-1.68 4.338 2.538 7.767 4.894 9.418 5.992 0.0227 5.595 11.1 10.38 7.923 4.857 2.986 7.34-3.268 12.91-1.566-1.817-2.344-0.1478-6.897 4.448-8.638 6.689 0.8672 9.456-5.47 14.2-7.495 7.351 3.113 10.71-9.603 16.26-3.601 3.622 6.961 6.817-4.891 11.36-1.237 2.347-4.251 9.191 0.8509 9.989-5.33 7.264 3.27 1.202-2.98 8.214-4.016 6.204 0.1143 11.98 3.737 17.68 4.073 1.433 2.734 7.359 2.791 10.92 6.204-0.1643-1.4-1.575-11.75 6.136-11.73 4.576-0.508 8.1 4.054 11.59 6.643 5.023 2.019 10.65 0.1374 16.29-0.6352 3.925-2.884 7.794 3.559 11.36-0.5023 4.13-0.0999 8.309 0.7923 10.53-0.3286 6.651 3.107 8.259 2.848 13.49 1.391 4.421 0.734 5.969-5.409 11.33-4.671 3.914-5.776-1.624-8.615-4.546-11.55-2.779-0.3501-5.886 0.8642-8.911-2.956-1.699-1.028-6.109 1.139-7.143-2.153-5.072 0.3899-2.476-11.54-9.38-8.108-4.398-0.581-9.565-5.894-9.41-9.721-4.997-1.876-1.479-7.654-3.768-11.27-2.17-4.319-5.875-9.138-6.087-13.2-2.053-1.142-2-5.939-1.391-7.287-3.147-2.446-12.35-2.42-11.37-9.176-2.863-1.437-7.071-4.936-11.53-6.053 3.095-3.358-6.708-6.866-7.809-3.325-3.857 3.997-7.851-2.35-9.429-4.592-10.28-6.715-19.03-15.91-28.95-23.23z" title="Cerro Largo"/>
  <path d="m488.3 283.8c-5.557-2.198-6.855 4.47-12.72-1.874-3.827 1.718-6.321-0.7203-10.26 0.6579-4.8 0.7741-6.999 1.397-11.71-1.005-4.944 2.156-11.98 3.319-16.92 2.177-4.391-2.166-7.188-6.291-11.81-7.487-7.677 0.2158-8.093 9.933-6.988 12.18-3.125-2.808-9.281-3.929-10.31-5.545-5.349-1.586-11.53-3.271-17.33-4.838-7.862-0.8524-2.061 8.347-8.54 3.975-1.442 5.534-7.536 1.462-10.04 5.519-4.902-4.277-8.233 8.294-11.9 1.269-5.439-6.302-8.577 6.113-15.51 3.422-5.553 0.6666-7.351 8.653-14.23 7.389-4.822 1.447-7.866 6.019-4.137 9.74-0.9236 5.95-6.969 5.901-11.25 9.259-0.5364 3.666-0.283 8.483 1.084 11.06-4.467 3.834 6.526 9.285-2.378 12 2.54 3.313-4.319 6.806-0.9085 11.58 6.874 3.718 4.228-2.347 5.545-7.306 6.208-0.7321 8.036-1.706 12.99 1.056 5.243 0.6715 9.395-4.894 13.23-3.417 5.996 4.459 10.1 12.33 18.53 9.565 5.144 1.019 13.87 6.072 17.11-0.7839 3.32-4.247 7.487-2.426 13.37-6.045 3.295 3.309 6.7 7.097 10.63 9.861 3.681 0.5511 10.03 1.519 13.72-1.772 6.961-2.432 3.808-8.895 10.3-10.25 7.249-0.3089 6.196-10.33 13.31-8.225-2.863-8.191 7.237-6.533 12.77-10.33 4.327-1.478 3.1-5.636 5.262-9.38-0.589-5.239 3.831-2.566 6.802-6.261 3.3-4.815 4.698-9.554 12.86-8.384 8.097 1.877 4.414-2.996 4.921-5.137 7.938-1.867 4.557-6.34 4.52-12.67z" title="Treinta y Tres"/>
  <path d="m281 481.6c-0.5451-2.799 0.1929-9.384-4.557-11.73-4.516-2.664-0.4576-5.012-0.684-8.449 1.657-6.42-5.773-9.123-5.701-15.71-4.232-6.439-1.752-12.52 4.292-16.5 0.7646-3.131 2.165-9.747 6.779-8.309 3.914-2.139 5.057-8.195 7.162-12.9 5.133-2.09 2.992-10.08 8.248-12.66 1.456-3.929 1.761-10.23-0.2309-12.06-3.262-1.834-3.925-7.453-0.7184-9.963 4.962-2.421 11.05-1.488 10.22-8.801 1.024-5.841 11.07 1.729 6.533-5.492 0.3242-3.8 7.181-4.451 5.008-7.404-1.861-8.078 6.76-5.22 9.452-7.226 3.282 4.599 10.81 1.836 14.14-0.8434 6.359-3.069 9.77 10.22 16.88 10.25 6.67-2.8 12.05 3.71 18.49 1.598 4.179-4.86 7.703-4.853 11.9-7.745 7.483-4.262 7.669 4.38 13.69 6.053 0.8392 3.003 12.79 4.849 3.074 5.704-4.077-0.5735-4.433 4.217-5.148 6.28-4.539 0.313-2.797 5.163-7.241 6.957-5.81-0.1264-8.63 4.451-7.306 10.24 4.141 5.962-5.458 7.889-3.827 13.06 1.681 6.901-5.451 7.366-6.087 12.1-6.647-2.186-4.656 7.461-7.87 9.758-3.627 4.311-9.637-0.8301-12.98 3.8 0.5784 7.192-3.85 9.073-6.571 13.85 0.7798 3.842 0.4663 11.05-3.595 10.36-1.705 5.988-1.056 13.18-8.093 14.35-3.608-0.9024-6.458 1.351-10.63 3.232-4.849 6.208-9.717 5.22-15.48 5.28-4.361 2.432-7.139 6.003-12.49 7.434-2.654 4.073 0.8585 7.09-6.643 5.822-4.361 0.4043-6.083 0.7783-10.03-0.3467z" title="Lavalleja"/>
  <path d="m289.3 500.1c-3.179-4.872-5.867-6.859-5.712-12.76-6.798-4.959 0.1961-5.526 4.156-5.439 2.964-1.301 11.83 2.767 8.172-2.624-0.2917-5.731 10.51-3.672 10.55-8.801 5.227-5.553 10.98 2.03 15.31-3.827 3.147-5.451 9.251-3.763 11.75-7.272 4.853 2.269 9.486-2.555 9.792-8.044-0.4815-7.43 6.318-5.273 4.716-12.95-0.2197-5.36 3.891-7.283 6.185-11.56-1.929-6.45 4.311-8.661 9.096-6.753 4.44-1.713 6.904-5.455 7.434-10.44 6.927-6.957 3.834 6.007 6.696 8.528-0.2177 4.353 0.1868 8.407-0.8089 11.33-0.2867 2.965-0.6874 12.15-0.5303 18.51 1.81 7.942-3.623 8.914-5.875 9.618-4.724 3.61 2.244 10.59 3.872 14.91-2.457 6.038-3.554 11.53-2.791 17.96 1.729 5.394-2.513 7.885-6.246 12.01-3.521 4.962-6.215 1.666-12.55 5.027-4.716 2.998-8.165 5.402-13.6 6.147-5.788 8.07-7.188-1.255-13.62-0.9232-3.311-2.244-6.7-4.557-13.56-3.272-4.478-0.1287-8.169 5.103-11.48 0.2544-0.5591-2.414-3.402-8.536-8.464-8.388-1.01 0.2252-1.674-0.9251-2.493-1.246z" title="Maldonado"/>
  <path d="m367.7 501.3c2.004-6.696 5.364-5.776 3.827-13.56-3.202-5.47 4.788-12.35 1.137-17.14-1.743-5.39-6-10.15-2.941-14.54 7.419 4.205 6.321-5.383 6.492-11.05-0.2347-6.821 0.0429-14.18 1.161-16.91-1.009-3.658 2.24-8.373-1.608-12.16 1.413-4.448-1.801-12.44 4.285-13.37 2.656-4.773-0.5273-10.76 5.269-13.74 1.192-4.436-3.284-16.9 6.416-15.66 4.785-1.536 3.46-6.499 7.487-7.143 1.931-1.059 0.648-6.662 4.921-6.306 5.038-0.0303 6.882-4.834 13.02-4.134 5.262-4.016 5.875-7.578 9.217-11.2 7.381 1.644 7.964-9.141 12.51-8.241 2.923-3.513 4.156-8.661 12.88-9.346 12.09-3.838 3.053-0.9274 3.702 5.326 2.122 7.521 12.14 2.378 4.713 9.91 1.803 5.492 2.914 5.75 0.5466 12.25-4e-3 6.261 6.378 9.516 5.988 15.11 1.078 5.769-2.822 14.39 7.4 12.6 0.1802 4.928 10.85 5.212 4.539 8.99-5.519 4.989-10.56 11.54-10.13 19.03-3.183 2.627-0.7253 8.46-3.093 10.98-8.464 8.286-22 16.52-23.14 29.58 6.041 5.47-2.809 8.99-7.983 11.36-9.626 5.349-22.72 11.02-26.24 21.52 2.585 5.333-9.259 4.122-6.991-0.9599 2.663-2.692-0.874-5.307-1.667-2.622-0.542 0.9111-8.047 6.791-2.359 5.012 6.431 1.298-4.769 4.955-10.18 7.094-7.105 1.872-12.71 6.151-19.19 9.323z" title="Rocha"/>
</svg>
