<svg version="1.1" viewBox="0 0 300 542.3" xmlns="http://www.w3.org/2000/svg">
	<path title="Batticaloa" d="m284.4 328c-1.01-2.02 0-7.407 0-7.407s-1.515-13.8-3.956-12.88c-2.441 1.01-2.946 3.451-2.946 3.451l-0.4209-2.946-0.5892-3.956-5.471-3.956-1.936-3.956-9.933 1.01 0.505-3.451 2.946-4.461 6.902 2.441 5.976 6.397s0.7576-0.9259 1.515-2.104c0.6734-1.094 1.178-2.357 0.9259-3.283-0.505-2.02-6.397-3.956-6.397-3.956l-4.461-7.912-3.451 0.505s-7.407-6.397-3.956-9.343c3.451-2.946 4.461-3.956 4.461-3.956l-4.966-1.936s-6.902 3.451-4.966 5.892c2.02 2.441 4.461 10.86 4.461 10.86l-6.902 1.01-0.505-2.441 3.451-1.01-3.451-9.343s-1.01-2.946 1.515-3.956c2.441-1.01 3.956-2.946 3.956-2.946v-4.461l-3.451 0.505-0.505-2.441s-3.956 0-4.461-2.02-2.02-14.31-2.02-14.31l-3.451 5.471-4.461-5.471s-3.451-1.515-5.892-2.946c-2.441-1.515-1.515-3.956-1.515-3.956l5.471 1.515-1.515-4.966 2.946 0.505 4.966 10.86 0.505-4.966-2.02-6.397-1.515-6.566c-1.852-0.0842-10.61-0.4209-15.24 0 0 0 1.852 8.923 1.852 11.11s-5.976 16.67-3.704 20.71c2.189 4.125 6.313 9.259 4.04 10.77-2.189 1.515-7.071 0-9.259 2.609-2.189 2.609-4.04 10.02-4.04 11.45s0.7576 11.45 0.7576 11.45l13.72 4.545s3.451 5.471 4.461 7.407c1.01 1.936 9.428 6.397 9.428 6.397s0 2.946 0.505 7.407c0.3367 2.946 5.135 5.64 8.333 7.155 1.683 0.7576 3.03 1.263 3.03 1.263s9.933 1.515 16.33 2.946c6.397 1.515 1.515 8.923 1.515 11.36s0 0 2.946-0.505c0.8418-0.1684 2.189-0.8418 3.788-1.768 3.283-1.936 7.407-4.882 8.67-5.892-1.178-2.441-2.189-4.461-2.525-5.135zm6.902-12.37c-0.2525-1.431-3.03-6.313-5.808-10.86-2.778-4.63-5.556-8.923-5.556-8.923l-1.515 0.505 4.293 9.68 1.599 3.704s5.471 12.88 5.471 14.31v5.892h0.0842l0.0842-0.0842 2.609-0.9259c-0.0842-2.778-0.8418-10.86-1.263-13.3z"/>
	<path title="Ampara" d="m296.3 398.2c2.441-1.515 3.956-5.471 3.451-7.407-0.505-2.02-2.441-1.515-2.441-1.515s-2.441-4.966-1.01-5.471c1.515-0.505 2.946-1.515 2.441-3.451-0.505-2.02 0.505-8.417 0.505-8.417l-6.397 2.946 3.956-7.912s1.515 1.01 2.441-2.02c0.5892-1.683 0.9259-8.333 0.7576-14.31-0.1684-4.545-0.6734-8.586-1.768-9.848-2.441-2.946-5.471-10.86-5.471-10.86s0-0.3367-0.0842-1.01l-2.609 0.9259c0.505-0.0842 1.768-0.0842 1.768 3.03 0 3.956 2.441 10.35 2.441 10.35l-1.01 2.946s-3.704-7.576-6.313-13.05c-1.263 0.9259-5.387 3.956-8.67 5.892-1.599 0.9259-2.946 1.599-3.788 1.768-2.946 0.505-2.946 2.946-2.946 0.505s4.966-9.848-1.515-11.36c-6.397-1.515-16.33-2.946-16.33-2.946s-1.263-0.4209-3.03-1.263c-3.283-1.515-8.081-4.209-8.333-7.155-0.505-4.461-0.505-7.407-0.505-7.407s-8.417-4.461-9.428-6.397c-1.01-2.02-4.461-7.407-4.461-7.407l-13.72-4.545s-2.609 8.502-4.461 10.77c-1.852 2.189-10.35-1.852-10.35-1.852s-11.11-5.556-12.96-5.892c-0.6734-0.1684-3.283-0.505-6.313-0.9259l-1.768 7.576-0.7576 9.68h0.2525c0.7576 0 3.367 0.1684 3.367 3.283 0 3.704 0.7576 10.35 4.461 10.35 3.704 0 14.81-8.165 17.76-5.892 2.946 2.189 2.189 6.65 2.189 6.65s-0.7576 19.28 0.7576 22.22c1.515 2.946 6.145 6.65 7.155 8.923 0 0 3.451 3.451 5.387 3.451 2.02 0 3.956-1.515 3.956-1.515l-0.505-6.902s2.946-3.956 5.471-5.892c2.441-2.02 2.946-4.966 2.946-4.966s13.8-9.343 14.31-6.902c0.505 2.441 0 12.37 0.505 14.31 0.505 1.936 7.407 20.71 7.407 20.71s-6.229 3.704-7.071 6.902c-0.0842 0.505-0.0842 1.01 0.0842 1.515 1.515 3.451 2.946 7.912 2.946 7.912l12.37 3.956s-1.01 50.42-1.01 53.37c0 1.431-0.2525 5.808-0.505 9.764-0.2525 4.125-0.505 7.997-0.505 7.997l13.72 5.387 0.1684 0.1684c2.02-2.441 4.293-5.135 4.293-5.135s4.966-9.848 6.397-12.88c1.515-2.946 0-3.956 1.515-5.892 1.515-2.02 7.912-19.28 7.912-19.28l3.956-22.73c0 0.0842-3.451-1.431-1.01-2.862z"/>
	<path title="Trincomalee" d="m237 211.4s-1.515-0.505-3.956-2.02c-0.8418-0.505-1.263-1.599-1.515-2.862-0.2525-1.431 0-5.05 0-5.05l4.461 5.471-3.451-19.78-2.02 2.02-1.515-3.451s-4.461 2.02-6.397 3.956c-1.936 2.02 4.966 3.956 4.966 3.956l-3.956 2.946-2.946-2.946s-6.397 2.02-8.923 0.505c-2.441-1.515 0-3.956 0-3.956l-3.535-2.609-5.892 1.683-2.441-3.451 4.966-3.956 4.461 2.02 2.441 2.02 1.515-6.902 2.441 2.441 1.515-1.515-2.441-6.397 1.01-6.397-5.892-7.912-4.461-6.397-3.451-2.02v-2.189l-5.976-11.36-1.01 2.441-7.407-8.923s-1.515-1.01-3.451-1.515c-2.02-0.505 1.01-3.451 1.01-3.451l-2.946-4.461-2.02 0.505-0.505 4.461-3.704-0.3367-1.683-0.1684-0.5892-3.114c-3.114 0.3367-15.91 1.936-17.85 2.862-0.3367 0.1684-0.9259 0.505-1.599 1.01 0.3367 0.6734 0.9259 1.852 2.357 3.451 2.189 2.609 12.21 6.65 14.81 8.165 2.609 1.515-4.125 13.72-4.125 13.72s2.104 14.39 3.114 18.69 10.27 12.46 8.081 19.11c-2.189 6.65-10.02 12.21-6.65 16.33 0.4209 0.505 0.8418 1.094 1.347 1.684 1.515 1.852 3.451 4.209 5.556 6.397 3.199 3.367 6.818 6.481 9.764 7.071 5.556 1.094 14.06-1.094 17.42 3.704s2.609 12.21 4.798 12.63c2.189 0.3367 8.502-11.53 11.87-12.63 0.505-0.1684 1.263-0.3367 2.189-0.4209 4.63-0.4209 13.3-0.0842 15.24 0z"/>
	<path title="Monaragala" d="m249.3 386.4s-1.515-4.461-2.946-7.912c-0.1684-0.505-0.2525-0.9259-0.0842-1.515 0.7576-3.199 7.071-6.902 7.071-6.902s-6.902-18.77-7.407-20.71c-0.505-2.02 0-11.87-0.505-14.31-0.505-2.441-14.31 6.902-14.31 6.902s-0.505 2.946-2.946 4.966c-2.441 2.02-5.471 5.892-5.471 5.892l0.505 6.902s-2.02 1.515-3.956 1.515c-1.936 0-5.471-3.451-5.471-3.451l-13.3 14.31-4.461-0.505-2.946 3.451 4.461 3.956 1.178 5.303 0.2525 1.178s4.461 0 9.848 1.515c5.387 1.515 1.01 14.31 1.01 14.31s-3.451 2.02-4.966 2.946c-1.515 1.01-2.441 4.966-4.461 6.902-2.02 2.02-5.471-1.01-5.471-1.01l-2.441 10.35-7.407 4.461-1.01 7.407 2.946 2.946s-1.515 5.471-1.515 6.902c0 1.515 2.441 8.417 2.441 8.417l-2.946 1.01-2.441 3.956s-1.01 4.461-3.451 2.946c-2.441-1.515-1.01-5.471-0.505-8.417 0.505-2.946-5.892-9.343-8.417-10.86-2.441-1.515-8.923 3.956-8.923 3.956-0.1684 0.505-4.545 12.96-5.976 18.35-0.1684 0.7576-0.3367 1.431-0.4209 1.852-0.1684 1.178 0.0842 3.283 0.5892 5.556 0.8417 4.545 2.441 10.1 2.357 11.7 0 2.441 9.848 11.87 9.848 11.87s9.428-4.966 10.86-5.387c1.515-0.505 1.515-3.956 2.441-5.976 1.01-2.02 13.8-2.946 17.34-2.441 3.451 0.505 7.407 8.923 9.343 9.848 2.02 1.01 7.407-1.515 7.407-1.515s18.27-5.976 22.22-7.912c3.956-1.936 6.902-6.902 7.912-8.923 1.01-1.936 4.966-3.451 7.912-4.966 2.946-1.515 6.397-3.956 6.397-3.956s1.01-16.33 1.01-17.76c0-2.946 1.01-53.37 1.01-53.37z"/>
	<path title="Polonnaruwa" d="m222.9 256.5c-2.189-4.04 3.704-18.52 3.704-20.71 0-2.189-1.852-11.11-1.852-11.11-0.9259 0.0842-1.683 0.2525-2.189 0.4209-3.367 1.094-9.596 12.96-11.87 12.63-1.094 0-1.094 0 0 0-2.189-0.3367-1.515-7.744-4.798-12.63-3.367-4.798-11.87-2.609-17.42-3.704-2.946-0.5892-6.566-3.704-9.764-7.071-2.104-2.189-4.04-4.545-5.556-6.397-0.6734 1.178-3.956 7.323-6.902 8.67-3.367 1.515-5.556 1.852-8.165 2.609-4.714 1.347-6.566 5.556-8.081 7.576 0.1684 1.178 0.5892 4.209 0.2525 5.387-0.3367 1.515-6.313 18.18-4.798 21.46 1.515 3.367 15.24 5.892 14.81 8.502-0.3367 2.609-2.189 4.461-2.609 5.556-0.3367 1.094 0.7576 7.744-1.094 9.596-1.852 1.852-5.556 6.65-5.556 6.65l-0.3367 0.1684c0.0842 0.1684 0.1684 0.3367 0.2525 0.505 0.505 1.263 0.8418 2.862 1.178 4.461 0.7576 3.367 0 8.923 2.946 9.259 2.946 0.3367 12.63-5.219 12.63-5.219 1.852 0.2525 7.071 0.9259 12.54 1.683 3.03 0.4209 5.64 0.7576 6.313 0.9259 1.852 0.3367 12.96 5.892 12.96 5.892s8.502 4.125 10.35 1.852c1.852-2.189 4.461-10.77 4.461-10.77s-0.7576-10.02-0.7576-11.45c0-1.515 1.852-8.923 4.04-11.45 2.189-2.609 7.071-1.094 9.259-2.609 2.357-1.431-1.683-6.566-3.956-10.69z"/>
	<path title="Badulla" d="m208.8 386.9c-5.471-1.515-9.848-1.515-9.848-1.515l-1.515-6.397-4.461-3.956 2.946-3.451 4.461 0.505 13.38-14.31c-1.01-2.189-5.724-5.892-7.155-8.923-1.515-2.946-0.7576-22.22-0.7576-22.22s0.7576-4.461-2.189-6.65c-2.946-2.189-14.06 5.892-17.76 5.892s-4.461-6.65-4.461-10.35c0-3.114-2.609-3.283-3.367-3.283l-3.114 5.556 0.2525 6.566 0.1684 3.283 0.3367 0.9259 2.357 6.313 0.7576 12.21 0.0842 5.892 3.199 11.87-6.902 2.946h-0.0842l0.7576 7.407-0.7576 4.798-1.852 6.313-1.852 4.461-2.357 3.62-3.199 4.966-4.461-1.515-2.946 3.704-0.7576 1.515-0.7576 2.946-3.704 1.515-2.609-0.9259 2.189 4.714 1.094 4.377 0.7576 4.377-0.505 3.451-0.2525 1.431-0.7576 1.01-1.431 1.936 5.219 4.798-1.515 2.946-0.7576 1.852 0.3367 2.946 1.852 2.189 4.461 0.6734s6.397-5.471 8.923-3.956c2.441 1.515 8.923 7.912 8.417 10.86-0.505 2.946-2.02 6.902 0.505 8.417 2.441 1.515 3.451-2.946 3.451-2.946l2.441-3.956 2.946-1.01s-2.441-6.902-2.441-8.417c0-1.515 1.515-6.902 1.515-6.902l-2.946-2.946 1.01-7.407 7.407-4.461 0.2525-1.178 2.189-9.175s3.451 2.946 5.471 1.01c1.936-1.936 2.946-5.892 4.461-6.902 1.515-1.01 4.966-2.946 4.966-2.946s4.293-13.05-1.094-14.48z"/>
	<path title="Hambantota" d="m273 466.9-13.38-5.471s-3.451 2.441-6.397 3.956c-2.946 1.515-6.902 2.946-7.912 4.966-1.01 1.936-3.956 6.902-7.912 8.923-3.956 1.936-22.22 7.912-22.22 7.912s-5.471 2.441-7.407 1.515c-2.02-1.01-5.892-9.428-9.343-9.848-3.451-0.505-16.33 0.505-17.34 2.441s-1.01 5.471-2.441 5.976c-1.515 0.505-10.86 5.387-10.86 5.387l1.515 9.848s-4.461 0-6.902-1.01-8.923-1.515-10.35-1.936c-1.515-0.505-3.451-0.505-3.451-0.505s-14.81-7.407-16.33-6.902c-0.1684 0.0842-0.505 0.3367-1.01 0.8418-2.778 2.862-9.343 12.37-8.923 14.48 0.505 2.441 5.471 5.892 5.471 5.892l1.936 2.946 3.451 2.946-2.02 1.515s2.441 2.441 0.505 4.461c-1.515 1.515-3.788 3.199-4.882 4.04-0.3367 0.2525-0.5892 0.4209-0.5892 0.4209l2.946 2.441 3.956 2.02 0.505 2.946v0.0842c1.683-0.3367 3.199-0.6734 3.956-1.01 1.936-1.01 3.956-4.461 3.956-4.461s0.0842 0.1684 0.2525 0.3367c0.4209 0.3367 1.178 0.7576 2.189-0.3367 1.515-1.515 2.946-5.471 4.461-5.471 1.515 0 3.451 1.01 5.892 0.505 2.441-0.505 8.923-2.946 8.923-2.946s2.02-6.397 2.946-4.966l1.01 1.515s7.407-2.441 11.36-2.02c3.956 0.505 10.86 0 10.86 0s7.407-4.461 8.923-5.471c1.515-1.01 18.27-4.966 20.71-5.471l2.441-0.505s3.451-4.966 8.417-6.902c4.966-2.02 9.848-5.471 13.8-8.923 3.956-3.451 5.892-3.451 11.36-7.407 5.387-3.956 13.8-11.36 15.32-13.38 0.505-0.6734 1.599-1.936 2.694-3.283z"/>
	<path title="Nuwara Eliya" d="m175 367.7 0.0842-0.0842-6.061-1.094-7.071 3.367-1.515-2.946-4.798-0.7576-8.165-8.923-2.609 2.189 1.094 7.744-6.65 8.165-1.094 4.798h-13.72l-2.946 1.515-3.114 2.862 4.966 4.545-0.2525 2.02 1.515 5.219-0.7576 5.219-9.175-3.199-2.357-2.778-1.852-2.946-3.367-2.609-6.313 5.892v3.704l1.347 5.135 3.451 3.956 3.451 3.114 0.0842 2.694-0.0842 6.061c0.7576 1.094 2.357 3.283 3.704 3.872 0.8418 0.3367 2.778 0.6734 4.63 0.9259 2.357 0.3367 4.63 0.5892 4.63 0.5892l6.313 2.609s11.45 0 13.72-0.7576c2.189-0.7576 10.77-2.189 10.77-2.189l0.3367 0.2525 0.7576-1.01 0.2525-1.431 0.505-3.451-0.7576-4.377-1.094-4.377-2.189-4.714 2.609 0.9259 3.704-1.515 0.7576-2.946 0.7576-1.515 2.946-3.704 4.461 1.515 3.199-4.966 2.357-3.62 1.852-4.461 1.852-6.313 0.7576-4.798z"/>
	<path title="Matale" d="m180.3 294.9c-5.556-0.7576-12.54-1.684-12.54-1.684s-9.596 5.556-12.63 5.219c-2.946-0.3367-2.189-5.892-2.946-9.259-0.3367-1.684-0.6734-3.283-1.178-4.461-0.0842-0.1683 0.0842-0.6734 0.0842-0.6734s3.704-4.798 5.556-6.65c1.852-1.852 0.7576-8.502 1.094-9.68 0.3367-1.094 2.189-2.946 2.609-5.556 0.3367-2.609-13.38-5.219-14.81-8.502 0 0-9.259 5.219-10.77 6.313-1.515 1.094-1.094 6.65-4.04 11.45-2.946 4.798-20.79 7.407-20.79 7.407l0.5892 2.441 0.9259 3.872 2.609 3.367 2.189 8.502 3.704 8.165 3.704 3.367s-4.714 13.22-0.7576 17.17l-3.704 3.956c1.094-0.7576 1.852 1.515 1.852 1.515l0.4209 0.3367 2.525 4.125 5.892 4.461 7.492 0.6734 0.7576-4.461 1.515-2.946 1.431-3.535 1.768-0.0842 1.347-0.0842 3.367 1.852 2.946 1.852 0.4209-0.3367 2.946-2.273 3.704-1.852 4.966 0.0842 6.566 0.505 2.441-2.357 3.451 1.684 0.9259-0.3367-0.3367-0.9259-0.1684-3.283-0.2525-6.566 2.862-5.471 0.7576-9.68z"/>
	<path title="Kandy" d="m178.9 352.9-0.0842-5.892-0.7576-12.21-2.357-6.313-0.9259 0.3367-3.451-1.684-2.441 2.357-6.566-0.505-4.966-0.0842-3.704 1.852-2.946 2.273-0.4209 0.3367-2.946-1.852-3.367-1.852-1.347 0.0842-1.768 0.0842-1.431 3.535-1.515 2.946-0.7576 4.461-7.492-0.6734-5.892-4.461-2.525-4.125-0.4209-0.3367s-0.7576-2.189-1.852-1.515c-1.094 0.7576-5.892 9.259-5.892 9.259s-4.461-1.852-5.556-0.7576-2.609 4.798-2.609 4.798l-4.04 2.609-0.1684 0.1684 1.431 1.515 2.609 3.956 1.263 0.4209 3.03 0.9259 4.125 8.165 0.3367 2.946 4.461 6.65-0.7576 1.852-4.545 1.599-4.714 1.684-3.704 1.515-3.199 1.263 1.094 0.9259 1.263 1.094 2.609 5.976 1.094 3.704 3.367 2.609 1.852 2.946 2.357 2.778 9.175 3.199 0.7576-5.135-1.431-5.219 0.3367-1.852-4.966-4.545 3.114-2.862 2.946-1.515h13.72l1.094-4.798 6.65-8.165-1.094-7.744 2.609-2.189 8.165 8.923 4.798 0.7576 1.263 2.525 0.2525 0.4209 7.071-3.367 6.061 1.094 1.01-0.3367 5.892-2.609z"/>
	<path title="Matara" d="m133.7 537-0.505-2.946-3.956-2.02-2.946-2.441s3.956-2.946 5.471-4.461c1.936-1.936-0.505-4.461-0.505-4.461l1.936-1.515-3.451-2.946-2.02-2.946s-4.966-3.451-5.387-5.976c-0.4209-2.104 6.145-11.62 8.923-14.48 0.0842-0.2525 0.0842-0.505 0.1684-0.7576 0.505-2.609 0.9259-6.986-1.178-6.986-2.946 0-8.165-0.7576-8.165-0.7576l1.515-5.976-15.57 5.976-2.02-1.094s-0.1684 0.3367-2.778 2.189c-2.609 1.852 2.189 4.798 1.852 5.892-0.3367 1.094-1.852 0.7576-1.852 0.7576s-14.06-7.071-12.96-3.704 6.313 8.165 7.071 9.259 0.1684 2.694-0.0842 3.704l-6.229 0.3367s-1.515 8.502 0.3367 12.21c1.852 3.704 7.071 7.407 5.976 8.923-0.5892 0.7576-1.431 1.263-2.189 1.515-0.6734 0.2525-1.178 0.3367-1.178 0.3367h-2.946v6.313l-2.862 5.976c1.599 0.5892 2.609 0.9259 2.609 0.9259s2.946-1.936 4.461-1.515c1.515 0.505 2.02 2.946 2.02 2.946l4.966 2.441 3.956-1.515 9.428 0.505v1.515l12.37-4.461c-0.2525 0.2525 2.862-0.1684 5.724-0.7576zm-6.902-7.912"/>
	<path title="Ratnapura" d="m167.8 492.6s-9.848-9.428-9.848-11.87c0-1.599-1.515-7.155-2.441-11.7-0.4209-2.357-0.7576-4.377-0.5892-5.556 0.0842-0.4209 0.1684-1.094 0.4209-1.852l-0.4209-0.0842 0.4209 0.0842c1.431-5.387 5.808-17.85 5.976-18.35l-4.461-0.6734-1.852-2.189-0.3367-2.946 0.7576-1.852 1.515-2.946-5.219-4.798 1.431-1.936-0.3367-0.2525s-8.502 1.515-10.77 2.189c-2.189 0.7576-13.72 0.7576-13.72 0.7576l-6.313-2.609s-2.273-0.2525-4.63-0.5892c-1.852-0.2525-3.872-0.5892-4.63-0.9259-1.347-0.505-3.03-2.778-3.704-3.872-0.2525-0.3367-0.3367-0.5892-0.3367-0.5892s-4.04-1.515-8.165-2.189c-4.04-0.7576-11.45-0.7576-11.45-0.7576l-7.071-1.515s-4.798-5.556-5.892-6.65c-0.8418-0.8418-4.714-2.609-6.313-3.367v0.0842l-6.061 2.525 1.178 5.556 2.189 5.976-3.199 0.5892-0.8418 0.1684 0.6734 5.556 0.505 2.357 0.7576 3.451 0.505 2.273 2.946 6.65 2.189 5.219 10.77 4.798-0.505 2.189-1.347 7.071 6.65 8.165 1.515 4.461-1.599 0.2525 19.61 10.52 2.02 1.094 15.57-5.976-1.515 5.976s5.219 0.7576 8.165 0.7576c2.104 0 1.599 4.377 1.178 6.986-0.0842 0.2525-0.0842 0.505-0.1684 0.7576 0.4209-0.505 0.7576-0.7576 1.01-0.8418 1.515-0.505 16.33 6.902 16.33 6.902s1.936 0 3.451 0.505c1.515 0.505 7.912 1.01 10.35 2.02 2.441 1.01 6.902 1.01 6.902 1.01z"/>
	<path title="Kegalle" d="m113.6 363.6-0.3367-2.946-4.125-8.165-3.03-0.9259-1.263-0.4209-2.609-3.956-1.431-1.515-3.704-3.956-2.778-1.347s-1.263 1.515-2.694 3.199c-1.347 1.683-2.862 3.535-3.283 4.293-0.3367 0.7576-1.683 1.936-2.862 2.946-1.178 1.01-2.357 1.852-2.357 1.852l-3.788 1.347-10.69 3.872-2.609 7.071-1.515 3.367-2.946 4.798 4.461 5.556-1.936 0.8418-2.273 4.209 1.936 6.481-0.5892 4.966 0.0842 0.2525-1.599 0.5892 0.3367 0.8417 5.135 1.01 1.094 2.02 0.2525 0.9259 1.263 4.882c1.599 0.7576 5.471 2.525 6.313 3.367 1.094 1.094 5.892 6.65 5.892 6.65l7.071 1.515s7.407 0 11.45 0.7576c4.04 0.7576 8.165 2.189 8.165 2.189s0.1684 0.2525 0.3367 0.5892l0.0842-6.061-0.0842-2.694-3.451-3.114-3.451-3.956-1.347-5.135v-3.704l6.313-5.892-1.094-3.704-2.609-5.976-1.263-1.094-1.094-0.9259 3.199-1.263 3.704-1.515 4.714-1.684 4.545-1.599 0.7576-1.852z"/>
	<path title="Anuradhapura" d="m170.3 170.7c-1.01-4.293-3.114-18.69-3.114-18.69s6.65-12.21 4.125-13.72c-2.609-1.515-12.63-5.556-14.81-8.165-1.347-1.599-2.02-2.778-2.357-3.451-4.04 2.609-12.96 9.175-15.4 9.764-2.946 0.7576-6.65-2.189-10.35-1.852-3.704 0.3367 2.946 6.65 6.313 10.35 3.367 3.704-19.28 16.67-19.28 16.67s-7.407-1.094-10.77-1.094-10.35 14.48-11.45 15.57c-0.505 0.505-0.9259 0.8418-1.431 1.263-0.6734 0.505-1.599 0.9259-3.03 1.347-2.609 0.7576-2.946-5.556-2.946-5.556s-6.65-10.77-8.502-13.38c-0.4209-0.505-1.094-0.6734-1.936-0.5892-3.199 0.505-9.007 4.714-12.54 6.481-4.461 2.189-9.259-2.189-11.87-3.704-2.609-1.515-0.3367 6.65 0.7576 9.259 1.094 2.609-2.609 8.165-2.609 8.165s2.946 4.798 3.367 6.65c0.3367 1.852-8.923 15.91-11.45 18.52-2.525 2.525 3.199 16.58 3.367 17 0 0.9259 7.997 3.03 12.21 4.209 1.01 0.2525 1.852 0.505 2.273 0.6734 1.01 0.3367 1.599 2.946 2.02 5.976h0.2525s8.923 0.7576 10.77 1.852 27.78 12.21 28.87 14.81c1.094 2.609 0.3367 11.87 2.609 12.63 1.263 0.4209 2.609 0.8418 3.451 0.8418 0.505 0 0.9259-0.1684 1.178-0.4209-0.2525 0.3367-0.6734 0.4209-1.178 0.4209l0.5892 0.5892c1.515 3.704-1.094 12.63-1.094 12.63l-0.1684 0.2525c2.02 1.263 3.872 2.778 3.872 2.778s17.76-2.609 20.79-7.407c2.946-4.798 2.609-10.35 4.04-11.45 1.515-1.094 10.77-6.313 10.77-6.313-1.515-3.367 4.461-20.03 4.798-21.46 0.3367-1.178-0.0842-4.209-0.2525-5.387-0.0842-0.3367-0.0842-0.505-0.0842-0.505l1.094-1.094-1.094 1.094s0 0.1684 0.0842 0.505c1.515-2.02 3.283-6.229 8.081-7.576 2.609-0.7576 4.798-1.094 8.165-2.609 3.03-1.347 6.313-7.492 6.902-8.67-0.505-0.6734-1.01-1.178-1.347-1.684-3.367-4.04 4.461-9.596 6.65-16.33 1.936-6.734-7.323-14.9-8.333-19.19z"/>
	<path title="Kurunegala" d="m123.5 308.4-3.704-3.367-0.0842-0.0842-3.62-8.081-2.189-8.502-2.609-3.367-0.9259-3.872-0.5892-2.441s-1.852-1.431-3.872-2.778l0.1684-0.2525s2.609-8.923 1.094-12.63l-0.5892-0.5892c-0.9259 0-2.189-0.4209-3.451-0.8418-2.189-0.7576-1.515-10.02-2.609-12.63-1.094-2.609-27.02-13.72-28.87-14.81-1.852-1.094-10.77-1.852-10.77-1.852h-0.2525c0.505 3.704 0.5892 7.828 0.5892 8.838 0 1.852 0 2.609 2.189 4.461 2.189 1.852-1.094 13.72-1.094 13.72s-0.2525 0.3367-0.6734 0.7576c-0.8417 0.8418-2.441 2.104-4.882 2.609-3.704 0.7576-2.946 4.04-3.704 6.313-0.7576 2.189-3.704 4.461-7.407 6.313s-7.744 15.24-7.744 15.24l-0.7576 5.892s-2.946 2.189-4.461 2.946c-1.515 0.7576-0.3367 1.852-0.3367 2.946s-3.704 2.189-3.704 2.189h-0.6734c0.08418 4.461 0.1683 13.13 0.2525 20.37 0.08418 4.966 0.08418 9.259 0.08418 11.11 0 1.263 0.1683 2.946 0.3367 4.798 0.8417 6.397 2.609 14.9 2.609 14.9l0.08417 0.0842c1.515-1.178 3.199-2.357 4.714-2.694 3.367-0.7576 8.502-0.7576 10.02-0.7576s7.407 2.189 7.407 2.189l5.219-3.704v-0.3367c0.1684-0.0842 0.3367 0 0.5892 0.0842 1.683 0.6734 5.471 4.04 5.471 4.04l3.872 2.946 10.69-3.872 3.788-1.347s1.094-0.8418 2.357-1.852c1.178-1.01 2.525-2.189 2.862-2.946s1.852-2.609 3.283-4.293c1.347-1.684 2.694-3.199 2.694-3.199l2.778 1.347 3.704 3.956 4.293-2.778s1.515-3.704 2.609-4.798 5.556 0.7576 5.556 0.7576 4.798-8.502 5.892-9.259l3.704-3.956c-3.956-3.704 0.6734-16.92 0.6734-16.92z"/>
	<path title="Galle" d="m103.2 485.5 2.609-1.852 0.1684-0.3367-19.61-10.52-3.956 2.694-2.609 2.189-0.7576 2.189-2.189 4.461-4.04-2.946-4.125-2.189-2.609 1.515-2.609 1.263-3.62 1.684-7.407-3.367-3.367-3.367-2.189-4.04-5.556-1.852-6.229 2.525c0.9259 2.946 2.02 6.397 2.525 7.828 0.1683 0.4209 0.2525 0.7576 0.2525 0.7576s2.441 10.44 3.956 16.33c0.4209 1.599 0.7576 2.862 0.9259 3.451 1.01 2.946 12.88 16.33 14.31 17.76 0.2525 0.2525 0.5892 0.5892 1.01 1.01 1.683 1.683 4.209 4.04 5.471 4.461 1.515 0.505 4.461 1.936 4.461 1.936s-0.6734 0.9259 0.4209 2.104c0.2525 0.2525 0.5892 0.5892 1.094 0.8417 1.852 1.178 13.38 5.135 18.6 6.987l0.2525-0.8418 2.609-5.219v-6.313h2.946s0.505-0.0842 1.178-0.3367c0.7576-0.2525 1.599-0.7576 2.189-1.515 1.094-1.515-4.125-5.219-5.976-8.923-1.852-3.704-0.3367-12.21-0.3367-12.21l6.229-0.3367h0.0842s0.7576-2.609 0-3.704c-0.7576-1.094-5.976-5.976-7.071-9.259-1.094-3.367 12.96 3.704 12.96 3.704s1.515 0.3367 1.852-0.7576c0.4209-1.01-4.461-3.956-1.852-5.808z"/>
	<path title="Kalutara" d="m86.49 468.1-6.65-8.165 1.347-7.071 0.505-2.189-10.77-4.798-2.189-5.219-2.946-6.65-1.852-8.165-0.6734-5.556 0.8418-0.1684v-0.1684s-5.471-2.441-9.848 3.956c-1.178 1.684-4.966-7.407-4.966-7.407l-10.86 10.35-3.956-2.441-6.313 1.936 1.347 6.313c-1.515-0.5892-3.62-1.094-5.892-0.8418h-0.08418c1.094 3.03 2.778 7.66 4.377 11.87 1.936 5.219 3.62 9.764 3.62 9.764s1.515 13.3 2.441 16.33c0.2525 0.8418 0.7576 2.273 1.178 3.788l6.229-2.525 5.556 1.852 2.189 4.04 3.367 3.367 7.407 3.367 8.923-4.461 4.125 2.189 4.04 2.946 2.189-4.461 0.7576-2.189 6.566-4.966 1.599-0.2525z"/>
	<path title="Colombo" d="m63.76 408.1 6.061-2.525v-0.0842l-1.263-4.882-0.2525-0.9259-1.094-2.02-5.135-1.01-0.3367-0.8418-5.135 1.936-4.545 2.189-2.946 3.704-1.852-0.3367-2.946-4.125-5.976 0.3367-5.135-0.6734c0-0.1684 0.08418-0.8417 0.1684-1.094 0.5892-2.189-1.768-1.599-1.768-2.273-0.8417-0.1684-3.114-0.505-4.209-0.3367-1.431 0.1683-4.63 2.357-4.63 2.357-0.505-0.7576-0.7576-1.347-0.7576-1.347s0.1683-1.178 0.1683-2.441v-0.7576c0-0.505-0.5892-1.263-1.347-2.02-0.5892-0.5892-1.347-1.178-1.852-1.599 0.505 2.273 0.8417 4.293 0.6734 4.882l-4.461 4.461 2.273 8.081 0.6734 2.357s2.189 11.11 2.609 12.96c0.3367 1.599 0.7576 3.199 1.01 4.545 0.2525 1.094 0.505 2.104 0.7576 2.778 0.1684 0.5892 0.505 1.431 0.9259 2.525h0.08418c2.273-0.2525 4.377 0.2525 5.892 0.8418l-1.347-6.313 6.313-1.936 3.956 2.441 10.86-10.35s3.704 9.175 4.966 7.407c4.461-6.397 9.848-3.956 9.848-3.956v0.1684l3.199-0.5892-2.189-5.892z"/>
	<path title="Gampaha" d="m64.6 368.1 1.515-3.367 2.609-7.071-3.872-2.946s-3.788-3.367-5.471-4.04c-0.2525-0.0842-0.4209-0.0842-0.5892-0.0842v0.3367l-5.219 3.704s-5.892-2.189-7.407-2.189c-1.515 0-6.65 0-10.02 0.7576-1.599 0.3367-3.199 1.515-4.714 2.694-0.6734 0.5892-1.347 1.094-2.02 1.599-0.9259 0.7576-1.768 1.347-2.525 1.599-0.6734 0.2525-1.936 0.1684-3.367 0-1.936-0.2525-4.125-0.8418-5.471-1.178 0.08418 1.515-0.08417 2.862-0.4209 3.62-1.515 2.946 3.956 11.36 2.946 12.88-1.01 1.515-2.946 1.01-2.946 1.01l-2.441-10.35 1.01 13.38s1.768 6.145 2.778 10.86v0.0842c0.505 0.4209 1.263 1.01 1.852 1.599 0.7576 0.7576 1.347 1.515 1.347 2.02v0.7576c-0.08417 1.178-0.1683 2.441-0.1683 2.441s0.3367 0.505 0.7576 1.347l0.1684-0.0842s3.03-2.02 4.377-2.189c1.094-0.1683 3.367 0.1684 4.209 0.3367 0-0.0842 0.08418-0.1684 0.1683-0.3367-0.08417 0.1684-0.1683 0.2525-0.1683 0.3367-0.08418 0.6734 2.357 0 1.768 2.273-0.08418 0.2525-0.08418 0.4209-0.1683 0.6734v0.4209l5.135 0.6734 5.976-0.3367 2.946 4.04 1.852 0.3367 2.946-3.704 4.545-2.189 5.135-1.936 1.599-0.5892-0.0842-0.2525 0.5892-4.966-1.936-6.481 2.273-4.209 1.936-0.8418-4.461-5.556z"/>
	<path title="Vanni" d="m35.82 118-2.946 2.946s-11.36-13.3-15.82-14.31c-4.461-1.01-13.38-3.451-13.38-3.451l1.936-3.956 13.8-0.505 7.407 4.966 6.397 5.471 2.441 2.441-1.515 1.515s-5.471-5.892-5.471-3.956c0 2.02 0 2.441 1.515 3.451 1.683 0.9259 5.64 5.387 5.64 5.387m139.4-1.936 4.966 2.441-9.848-16.83-3.451-1.515s-2.441 0.505-3.956-1.515c-1.515-2.02-0.505-4.966-0.505-4.966l7.407 2.946-7.912-19.28-2.441 0.505v4.966l-7.407-5.471 0.505-4.461 6.902 2.441-0.7576-0.9259-13.64-16.16v3.451l6.902 8.417-4.461-2.441-5.976-6.566-0.1683 0.1684-7.071 0.7576s-5.219 3.367-6.313 4.04c-1.094 0.7576-4.461-2.609-5.976-2.946-1.515-0.3367-4.04 4.04-5.892 6.313-1.852 2.189-5.976 1.515-7.744 1.852-1.852 0.3367-2.609 2.946-4.04 4.04s-10.35-0.3367-11.45-0.3367-11.11 1.515-14.06 2.946c-2.946 1.515 0 7.071 0 7.071s-0.7576 1.515-2.609 2.189c-0.5892 0.2525-2.189 0.3367-4.04 0.4209-2.946 0.0842-6.734 0-8.333 0-1.263 3.788-3.535 10.35-4.63 10.69-1.515 0.505-2.946 5.892-2.946 5.892s-5.892 10.35-8.417 11.87c-2.441 1.515-11.36 6.397-11.36 6.397l1.01 4.966s-1.515 12.37-1.515 14.81c0 2.441 1.936 13.8 1.936 13.8s-1.936 15.32-4.882 19.7l16.08 3.704s3.704-5.556 2.609-8.165c-1.094-2.609-3.367-10.77-0.7576-9.259 2.609 1.515 7.407 5.976 11.87 3.704 3.451-1.768 9.343-6.061 12.54-6.481 0.8418-0.0842 1.515 0 1.936 0.5892 1.852 2.609 8.502 13.38 8.502 13.38s0.3367 6.313 2.946 5.556c1.515-0.4209 2.357-0.8418 3.03-1.347 0.505-0.3367 0.9259-0.7576 1.431-1.263 1.094-1.094 8.165-15.57 11.45-15.57 3.283 0 10.77 1.094 10.77 1.094s22.64-12.96 19.28-16.67-10.02-10.02-6.313-10.35c3.704-0.3367 7.407 2.609 10.35 1.852 2.525-0.5892 11.45-7.155 15.4-9.764 0.6734-0.505 1.263-0.8417 1.599-1.01 1.936-1.01 14.73-2.525 17.85-2.862l-0.9259-5.219-2.946-2.946 2.441-3.451zm-21.21 10.19s0 0.0842 0.0842 0.0842l-0.0842-0.0842z"/>
	<path title="Puttalam" d="m63.51 245.8c-2.189-1.852-2.189-2.609-2.189-4.461 0-1.01-0.0842-5.219-0.5892-8.838-0.3367-3.03-1.01-5.64-2.02-5.976-0.4209-0.1684-1.263-0.3367-2.273-0.6734-4.209-1.178-12.21-3.283-12.21-4.209-0.1684-0.4209-5.892-14.48-3.367-17 2.609-2.609 11.87-16.67 11.45-18.52-0.3367-1.852-3.367-6.65-3.367-6.65l-16.08-3.704c-0.3367 0.505-0.6734 0.9259-1.094 1.094-3.451 1.515-6.397 2.946-6.397 2.946l0.505 10.35s-5.471 8.923-4.966 11.36c0.505 2.441 2.946 5.471 1.01 7.912-1.936 2.441-9.848 11.36-7.407 11.36 2.441 0 3.956 5.471 3.451 7.407-0.505 1.936-1.01 9.848-2.02 11.36-1.01 1.515-3.451 2.946-3.451 2.946s5.892 7.912 6.397 9.343c0.2525 0.6734-0.3367 5.471-1.094 10.1-0.8417 5.05-1.852 9.933-2.357 9.175-1.01-1.515 0.505 11.87 0.505 11.87h-2.946s0.505-15.32 1.515-20.79c1.01-5.471 0-7.407 0-7.407s-3.956 0.505-5.471-1.01c-1.515-1.515-3.451-7.407-2.02-8.923l1.515-1.515-2.946-6.902 2.02-8.923s-2.441 0 0-2.441c2.441-2.441 2.946-5.471 2.946-5.471l-1.515-4.966 2.441-10.86-3.956 4.461-3.956 11.36-3.451 2.946s1.515 2.946 0.505 7.407c-1.01 4.461-0.505 8.923-0.505 8.923l9.091 40.24s1.768 6.65 2.946 12.04c0.6734 3.114 1.178 5.808 0.9259 6.734-0.505 2.441-0.505 12.88-0.505 12.88s2.273 7.912 3.114 12.12c0.4209 2.02 0.505 3.199-0.1684 2.189-2.02-2.946-4.966-11.87-4.966-11.87l1.01 9.428 2.946 10.86s0 4.882 0.4209 8.586c0.1684 1.347 0.3367 2.525 0.5892 3.283 0.7576 2.189 2.273 8.333 2.441 12.71 1.347 0.3367 3.535 0.8418 5.471 1.178 1.431 0.1684 2.609 0.2525 3.367 0 0.7576-0.2525 1.599-0.8418 2.525-1.599 0.6734-0.505 1.347-1.094 2.02-1.599l-0.08417-0.0842s-1.768-8.502-2.609-14.9c-0.2525-1.852-0.3367-3.535-0.3367-4.798 0-1.852-0.08418-6.145-0.08418-11.11-0.08418-7.239-0.1683-15.91-0.2525-20.37h0.6734s3.704-1.094 3.704-2.189-1.094-2.189 0.3367-2.946c1.515-0.7576 4.461-2.946 4.461-2.946l0.7576-5.892s4.04-13.38 7.744-15.24c3.704-1.852 6.65-4.125 7.407-6.313 0.7576-2.189 0-5.556 3.704-6.313 2.441-0.505 4.125-1.768 4.882-2.609 0.4209-0.4209 0.6734-0.7576 0.6734-0.7576s3.451-11.95 1.178-13.8z"/>
	<path title="Jaffna" d="m16.96 20.2 1.01-2.441 2.946 1.515s1.936 4.966-1.01 2.946l-2.946-2.02m-2.441 10.35s0-2.946 1.936-2.946h1.936s-0.4209 6.902-3.872 2.946m-12.79 4.461s5.471 4.966 7.407 4.966c1.936 0 1.01 2.441 1.515 3.956 0.505 1.515-1.936 3.451-5.892 1.01-4.04-2.525-3.03-9.933-3.03-9.933m21.21-9.428s-0.2525 1.684 2.609 2.104c2.862 0.4209 5.303 0.8418 5.303 0.8418l-0.505 7.407s-4.461 1.01-5.976-1.515c-1.431-2.357-1.431-8.838-1.431-8.838m23.74 0 4.966 1.01v2.441s-7.912 4.966-6.397 2.946c1.431-1.936 1.431-6.397 1.431-6.397m-19.78-9.343s7.912-1.01 8.417 1.515c0.505 2.441-0.505 4.966 1.515 4.461 1.936-0.505 2.946-2.946 2.946-2.946l5.471 7.912-1.01 1.515-5.892-1.936-1.515 1.936-4.966-3.451s2.946-4.461 1.515-3.956c-1.515 0.505-4.966 0-4.966 0l-1.515-5.05m115.7 40.99-15.32-11.36-8.249-7.912-5.64-5.387-15.15-12.54-13.55-20.03-3.451 1.01h-0.3367l-9.512-0.505-1.01 3.451s5.892 3.956 8.417 3.451c0.7576-0.1684 1.684-0.0842 2.609 0 0.8418 0.0842 1.683 0.2525 2.357 0.4209 1.178 0.2525 1.936 0.5892 1.936 0.5892l10.86 14.81 10.69 7.239 3.199 5.135c-0.0842 0-0.3367-0.1684-0.7576-0.4209-2.609-1.599-11.36-6.986-12.63-7.407 0 0-0.0842 0-0.0842-0.0842-0.0842-0.0842-0.2525-0.1684-0.3367-0.3367-0.0842-0.0842-0.1684-0.0842-0.2525-0.1684-0.2525-0.2525-0.6734-0.6734-1.01-1.094-0.1684-0.1684-0.3367-0.3367-0.505-0.5892-0.7576-0.8418-1.599-1.768-2.441-2.862-0.3367-0.4209-0.6734-0.8418-1.01-1.263-0.3367-0.4209-0.6734-0.8418-1.094-1.263-0.1684-0.2525-0.3367-0.4209-0.505-0.6734-0.0842-0.1684-0.2525-0.3367-0.4209-0.4209-0.2525-0.2525-0.505-0.5892-0.6734-0.8418-0.2525-0.2525-0.505-0.5892-0.6734-0.8418-0.3367-0.4209-0.6734-0.8418-1.01-1.263-0.2525-0.2525-0.4209-0.5892-0.6734-0.8418-1.094-1.347-2.02-2.525-2.862-3.535-0.3367-0.4209-0.6734-0.8417-0.9259-1.263-0.1684-0.1684-0.2525-0.3367-0.3367-0.4209-0.505-0.5892-0.7576-1.01-0.7576-1.01s-4.966 0.4209-8.417 0.505h-0.6734-0.3367c-3.451 0-3.956-6.902-3.956-6.902l-3.114-0.5892-9.764-1.852s-4.461 2.441-5.892 2.946c-1.431 0.505-6.145-1.347-6.397-1.515 0.1683 0.1683 0.1683 0.1683 0 0 0 0-4.461 5.471-4.461 6.902 0 1.515 2.441 3.956 2.441 3.956l0.505 1.094 2.441 4.882 3.451-1.01 2.02 1.936 5.892 5.471 9.848 4.966-6.397-8.417 1.431-1.768 2.525-3.114h5.387l4.966-4.461 3.956 1.515-7.407 4.461-0.505 2.946-3.451-2.02-2.441 2.02 2.441 4.461 6.902 3.956 1.936-1.936-0.505-3.956 3.451 2.02 14.31 9.848 12.37 8.923h0.0842l3.872-2.441 2.441 1.01 2.02-2.02 0.6734 0.0842 0.0842-0.0842-0.0842 0.0842 5.808 4.04 6.818 0.7576 0.9259 0.9259 7.492 7.239-9.343-0.505-10.35-6.902-3.451 1.01-3.451-2.946-2.441 1.01-2.946 4.461-5.05 1.852-2.441-1.515s-9.848 2.946-10.35 1.01c-0.505-1.936 2.441-2.441 2.441-2.441l-2.02-2.02 2.441-1.515-9.428-5.892-6.902-1.936-12.37-6.397-2.441 1.599 9.848 4.882 8.923 11.36s-1.936 4.966-4.461 5.976c-2.441 1.01-11.36 4.461-11.87 6.397-0.505 1.936-1.01 8.923 1.01 8.923 1.936 0 4.461 2.946 4.461 2.946l0.505 11.87s-0.3367 1.094-0.8418 2.609c1.684 0.0842 5.387 0.0842 8.333 0 1.852-0.0842 3.451-0.1684 4.04-0.4209 1.852-0.7576 2.609-2.189 2.609-2.189s-2.946-5.556 0-7.071c2.946-1.515 12.96-2.946 14.06-2.946 1.094 0 10.02 1.515 11.45 0.3367 1.515-1.094 2.189-3.704 4.04-4.04 1.852-0.3367 5.976 0.3367 7.744-1.852 1.852-2.273 4.461-6.65 5.892-6.313s4.798 3.704 5.976 2.946c1.094-0.7576 6.313-4.04 6.313-4.04l7.071-0.7576 0.1684-0.1684-3.872-4.293 4.461 2.441z"/>
</svg>

