Municipality,PEP,PD,PR,FRETILIN,MSD,MDN,FDD,AMP,Total
Aileu,222,1118,133,6975,92,386,1862,15933,26721
Ainaro,386,3255,265,5939,160,703,354,19026,33274
Baucau,406,2532,432,35612,393,216,2031,27027,68649
Bobonaro,528,7797,470,14185,264,308,2414,269,52866
Covalima,271,6332,252,8896,104,202,189,17536,35483
Dili,600,5881,405,45206,496,546,4847,71763,129744
Ermera,777,6843,583,14988,379,1,4725,34686,63981
Lautem,187,5057,207,15394,146,86,946,12344,34367
Liquica,381,3935,390,10834,350,346,332,17663,37219
Manatuto,369,1718,155,5737,251,125,1767,16299,26421
Manufahi,314,2034,173,89,124,150,28,14899,29394
RAEOA,340,2065,178,10831,103,153,2022,22455,38147
Viqueque,269,1655,466,27322,306,265,2023,1145,43756
Australia,4,25,14,441,7,3,36,314,844
Coreia do Sul,0,25,0,116,0,0,23,199,363
Portugal,4,38,1,289,9,1,33,140,515
Reino Unido ,2,60,1,1659,4,4,22,1029,2781
Total,506,5037,4125,213324,3188,4494,34301,309663,624525
Source,http://www.cne.tl/apuramento.2018/public.php,,,,,,,,
Wikipedia,https://en.wikipedia.org/wiki/2018_East_Timorese_parliamentary_election,,,,,,,,
